{
    "TrkAnaOffl" : {
        "enabled" : true,
        "TestType"  : "Offline",
        "RefType"   : "Truth", 
        "MatchingType"  : "TruthMatch",
        "OfflineQualityWP"  : "" 
    },
    "TrkAnaOffl_TightPrimary" : {
        "enabled" : true,
        "TestType"  : "Offline",
        "RefType"   : "Truth", 
        "MatchingType"  : "TruthMatch",
        "OfflineQualityWP"  : "TightPrimary" 
    }
}
