mc20_13TeV.304014.MadGraphPythia8EvtGen_A14NNPDF23_3top_SM.recon.AOD.e4324_s3681_r13167
mc20_13TeV.304014.MadGraphPythia8EvtGen_A14NNPDF23_3top_SM.recon.AOD.e4324_s3681_r13144
mc20_13TeV.304014.MadGraphPythia8EvtGen_A14NNPDF23_3top_SM.recon.AOD.e4324_s3681_r13145
mc20_13TeV.341450.PowhegPythia8EvtGen_CT10_AZNLO_ZH125J_MINLO_eeWWlvqq_VpT.recon.AOD.e4212_s3681_r13144
mc20_13TeV.341450.PowhegPythia8EvtGen_CT10_AZNLO_ZH125J_MINLO_eeWWlvqq_VpT.recon.AOD.e4212_s3681_r13145
mc20_13TeV.341450.PowhegPythia8EvtGen_CT10_AZNLO_ZH125J_MINLO_eeWWlvqq_VpT.recon.AOD.e4212_s3681_r13167
mc20_13TeV.341452.PowhegPythia8EvtGen_CT10_AZNLO_ZH125J_MINLO_mumuWWlvqq_VpT.recon.AOD.e4343_s3681_r13144
mc20_13TeV.341452.PowhegPythia8EvtGen_CT10_AZNLO_ZH125J_MINLO_mumuWWlvqq_VpT.recon.AOD.e4343_s3681_r13145
mc20_13TeV.341452.PowhegPythia8EvtGen_CT10_AZNLO_ZH125J_MINLO_mumuWWlvqq_VpT.recon.AOD.e4343_s3681_r13167
mc20_13TeV.341454.PowhegPythia8EvtGen_CT10_AZNLO_ZH125J_MINLO_tautauWWlvqq_VpT.recon.AOD.e4212_s3681_r13144
mc20_13TeV.341454.PowhegPythia8EvtGen_CT10_AZNLO_ZH125J_MINLO_tautauWWlvqq_VpT.recon.AOD.e4212_s3681_r13145
mc20_13TeV.341454.PowhegPythia8EvtGen_CT10_AZNLO_ZH125J_MINLO_tautauWWlvqq_VpT.recon.AOD.e4212_s3681_r13167
mc20_13TeV.341456.PowhegPythia8EvtGen_CT10_AZNLO_ZH125J_MINLO_veveWWlvqq_VpT.recon.AOD.e4212_s3681_r13144
mc20_13TeV.341456.PowhegPythia8EvtGen_CT10_AZNLO_ZH125J_MINLO_veveWWlvqq_VpT.recon.AOD.e4212_s3681_r13145
mc20_13TeV.341456.PowhegPythia8EvtGen_CT10_AZNLO_ZH125J_MINLO_veveWWlvqq_VpT.recon.AOD.e4212_s3681_r13167
mc20_13TeV.341458.PowhegPythia8EvtGen_CT10_AZNLO_ZH125J_MINLO_vmuvmuWWlvqq_VpT.recon.AOD.e4212_s3681_r13144
mc20_13TeV.341458.PowhegPythia8EvtGen_CT10_AZNLO_ZH125J_MINLO_vmuvmuWWlvqq_VpT.recon.AOD.e4212_s3681_r13145
mc20_13TeV.341458.PowhegPythia8EvtGen_CT10_AZNLO_ZH125J_MINLO_vmuvmuWWlvqq_VpT.recon.AOD.e4212_s3681_r13167
mc20_13TeV.341460.PowhegPy8EG_CT10_AZNLO_ZH125J_MINLO_vtauvtauWWlvqq_VpT.recon.AOD.e4377_s3681_r13144
mc20_13TeV.341460.PowhegPy8EG_CT10_AZNLO_ZH125J_MINLO_vtauvtauWWlvqq_VpT.recon.AOD.e4377_s3681_r13145
mc20_13TeV.341460.PowhegPy8EG_CT10_AZNLO_ZH125J_MINLO_vtauvtauWWlvqq_VpT.recon.AOD.e4377_s3681_r13167
mc20_13TeV.343981.PowhegPythia8EvtGen_NNLOPS_nnlo_30_ggH125_gamgam.recon.AOD.e5607_s3681_r13144
mc20_13TeV.343981.PowhegPythia8EvtGen_NNLOPS_nnlo_30_ggH125_gamgam.recon.AOD.e5607_s3681_r13145
mc20_13TeV.343981.PowhegPythia8EvtGen_NNLOPS_nnlo_30_ggH125_gamgam.recon.AOD.e5607_s3681_r13167
mc20_13TeV.345053.PowhegPythia8EvtGen_NNPDF3_AZNLO_WmH125J_MINLO_lvbb_VpT.recon.AOD.e5706_s3681_r13144
mc20_13TeV.345053.PowhegPythia8EvtGen_NNPDF3_AZNLO_WmH125J_MINLO_lvbb_VpT.recon.AOD.e5706_s3681_r13167
mc20_13TeV.345053.PowhegPythia8EvtGen_NNPDF3_AZNLO_WmH125J_MINLO_lvbb_VpT.recon.AOD.e5706_s3681_r13145
mc20_13TeV.345054.PowhegPythia8EvtGen_NNPDF3_AZNLO_WpH125J_MINLO_lvbb_VpT.recon.AOD.e5706_s3681_r13144
mc20_13TeV.345054.PowhegPythia8EvtGen_NNPDF3_AZNLO_WpH125J_MINLO_lvbb_VpT.recon.AOD.e5706_s3681_r13167
mc20_13TeV.345054.PowhegPythia8EvtGen_NNPDF3_AZNLO_WpH125J_MINLO_lvbb_VpT.recon.AOD.e5706_s3681_r13145
mc20_13TeV.345055.PowhegPythia8EvtGen_NNPDF3_AZNLO_ZH125J_MINLO_llbb_VpT.recon.AOD.e5706_s3681_r13144
mc20_13TeV.345055.PowhegPythia8EvtGen_NNPDF3_AZNLO_ZH125J_MINLO_llbb_VpT.recon.AOD.e5706_s3681_r13167
mc20_13TeV.345055.PowhegPythia8EvtGen_NNPDF3_AZNLO_ZH125J_MINLO_llbb_VpT.recon.AOD.e5706_s3681_r13145
mc20_13TeV.345056.PowhegPythia8EvtGen_NNPDF3_AZNLO_ZH125J_MINLO_vvbb_VpT.recon.AOD.e5706_s3681_r13144
mc20_13TeV.345056.PowhegPythia8EvtGen_NNPDF3_AZNLO_ZH125J_MINLO_vvbb_VpT.recon.AOD.e5706_s3681_r13145
mc20_13TeV.345056.PowhegPythia8EvtGen_NNPDF3_AZNLO_ZH125J_MINLO_vvbb_VpT.recon.AOD.e5706_s3681_r13167
mc20_13TeV.345057.PowhegPythia8EvtGen_NNPDF3_AZNLO_ggZH125_llbb.recon.AOD.e5706_s3681_r13144
mc20_13TeV.345057.PowhegPythia8EvtGen_NNPDF3_AZNLO_ggZH125_llbb.recon.AOD.e5706_s3681_r13167
mc20_13TeV.345057.PowhegPythia8EvtGen_NNPDF3_AZNLO_ggZH125_llbb.recon.AOD.e5706_s3681_r13145
mc20_13TeV.345060.PowhegPythia8EvtGen_NNLOPS_nnlo_30_ggH125_ZZ4l.recon.AOD.e7735_s3681_r13144
mc20_13TeV.345060.PowhegPythia8EvtGen_NNLOPS_nnlo_30_ggH125_ZZ4l.recon.AOD.e7735_s3681_r13145
mc20_13TeV.345060.PowhegPythia8EvtGen_NNLOPS_nnlo_30_ggH125_ZZ4l.recon.AOD.e7735_s3681_r13167
mc20_13TeV.345061.PowhegPythia8EvtGen_NNPDF3_AZNLO_ggZH125_HgamgamZinc.recon.AOD.e5762_s3681_r13144
mc20_13TeV.345061.PowhegPythia8EvtGen_NNPDF3_AZNLO_ggZH125_HgamgamZinc.recon.AOD.e5762_s3681_r13145
mc20_13TeV.345061.PowhegPythia8EvtGen_NNPDF3_AZNLO_ggZH125_HgamgamZinc.recon.AOD.e5762_s3681_r13167
mc20_13TeV.345066.PowhegPythia8EvtGen_NNPDF3_AZNLO_ggZH125_ZZ4lepZinc.recon.AOD.e7735_s3681_r13144
mc20_13TeV.345066.PowhegPythia8EvtGen_NNPDF3_AZNLO_ggZH125_ZZ4lepZinc.recon.AOD.e7735_s3681_r13145
mc20_13TeV.345066.PowhegPythia8EvtGen_NNPDF3_AZNLO_ggZH125_ZZ4lepZinc.recon.AOD.e7735_s3681_r13167
mc20_13TeV.345097.PowhegPythia8EvtGen_NNLOPS_nnlo_30_ggH125_mumu.recon.AOD.e5732_s3681_r13144
mc20_13TeV.345097.PowhegPythia8EvtGen_NNLOPS_nnlo_30_ggH125_mumu.recon.AOD.e5732_s3681_r13145
mc20_13TeV.345097.PowhegPythia8EvtGen_NNLOPS_nnlo_30_ggH125_mumu.recon.AOD.e5732_s3681_r13167
mc20_13TeV.345098.PowhegPythia8EvtGen_NNPDF3_AZNLO_ggZH125_Hmumu_Zinc.recon.AOD.e5966_s3681_r13144
mc20_13TeV.345098.PowhegPythia8EvtGen_NNPDF3_AZNLO_ggZH125_Hmumu_Zinc.recon.AOD.e5966_s3681_r13145
mc20_13TeV.345098.PowhegPythia8EvtGen_NNPDF3_AZNLO_ggZH125_Hmumu_Zinc.recon.AOD.e5966_s3681_r13167
mc20_13TeV.345103.PowhegPythia8EvtGen_NNPDF30_AZNLO_ZH125J_Hmumu_Zincl_MINLO.recon.AOD.e5834_s3681_r13144
mc20_13TeV.345103.PowhegPythia8EvtGen_NNPDF30_AZNLO_ZH125J_Hmumu_Zincl_MINLO.recon.AOD.e5834_s3681_r13145
mc20_13TeV.345103.PowhegPythia8EvtGen_NNPDF30_AZNLO_ZH125J_Hmumu_Zincl_MINLO.recon.AOD.e5834_s3681_r13167
mc20_13TeV.345104.PowhegPythia8EvtGen_NNPDF30_AZNLO_WpH125J_Hmumu_Wincl_MINLO.recon.AOD.e5834_s3681_r13144
mc20_13TeV.345104.PowhegPythia8EvtGen_NNPDF30_AZNLO_WpH125J_Hmumu_Wincl_MINLO.recon.AOD.e5834_s3681_r13145
mc20_13TeV.345104.PowhegPythia8EvtGen_NNPDF30_AZNLO_WpH125J_Hmumu_Wincl_MINLO.recon.AOD.e5834_s3681_r13167
mc20_13TeV.345105.PowhegPythia8EvtGen_NNPDF30_AZNLO_WmH125J_Hmumu_Wincl_MINLO.recon.AOD.e5834_s3681_r13144
mc20_13TeV.345105.PowhegPythia8EvtGen_NNPDF30_AZNLO_WmH125J_Hmumu_Wincl_MINLO.recon.AOD.e5834_s3681_r13145
mc20_13TeV.345105.PowhegPythia8EvtGen_NNPDF30_AZNLO_WmH125J_Hmumu_Wincl_MINLO.recon.AOD.e5834_s3681_r13167
mc20_13TeV.345109.PowhegPythia8EvtGen_NNPDF3_AZNLO_WmH125J_MINLO_lvcc_VpT.recon.AOD.e5765_s3681_r13144
mc20_13TeV.345109.PowhegPythia8EvtGen_NNPDF3_AZNLO_WmH125J_MINLO_lvcc_VpT.recon.AOD.e5765_s3681_r13145
mc20_13TeV.345109.PowhegPythia8EvtGen_NNPDF3_AZNLO_WmH125J_MINLO_lvcc_VpT.recon.AOD.e5765_s3681_r13167
mc20_13TeV.345110.PowhegPythia8EvtGen_NNPDF3_AZNLO_WpH125J_MINLO_lvcc_VpT.recon.AOD.e5765_s3681_r13144
mc20_13TeV.345110.PowhegPythia8EvtGen_NNPDF3_AZNLO_WpH125J_MINLO_lvcc_VpT.recon.AOD.e5765_s3681_r13145
mc20_13TeV.345110.PowhegPythia8EvtGen_NNPDF3_AZNLO_WpH125J_MINLO_lvcc_VpT.recon.AOD.e5765_s3681_r13167
mc20_13TeV.345111.PowhegPythia8EvtGen_NNPDF3_AZNLO_ZH125J_MINLO_llcc_VpT.recon.AOD.e5765_s3681_r13144
mc20_13TeV.345111.PowhegPythia8EvtGen_NNPDF3_AZNLO_ZH125J_MINLO_llcc_VpT.recon.AOD.e5765_s3681_r13145
mc20_13TeV.345111.PowhegPythia8EvtGen_NNPDF3_AZNLO_ZH125J_MINLO_llcc_VpT.recon.AOD.e5765_s3681_r13167
mc20_13TeV.345112.PowhegPythia8EvtGen_NNPDF3_AZNLO_ZH125J_MINLO_vvcc_VpT.recon.AOD.e5765_s3681_r13144
mc20_13TeV.345112.PowhegPythia8EvtGen_NNPDF3_AZNLO_ZH125J_MINLO_vvcc_VpT.recon.AOD.e5765_s3681_r13145
mc20_13TeV.345112.PowhegPythia8EvtGen_NNPDF3_AZNLO_ZH125J_MINLO_vvcc_VpT.recon.AOD.e5765_s3681_r13167
mc20_13TeV.345113.PowhegPythia8EvtGen_NNPDF3_AZNLO_ggZH125_llcc.recon.AOD.e5765_s3681_r13144
mc20_13TeV.345113.PowhegPythia8EvtGen_NNPDF3_AZNLO_ggZH125_llcc.recon.AOD.e5765_s3681_r13145
mc20_13TeV.345113.PowhegPythia8EvtGen_NNPDF3_AZNLO_ggZH125_llcc.recon.AOD.e5765_s3681_r13167
mc20_13TeV.345120.PowhegPy8EG_NNLOPS_nnlo_30_ggH125_tautaul13l7.recon.AOD.e5814_s3681_r13144
mc20_13TeV.345120.PowhegPy8EG_NNLOPS_nnlo_30_ggH125_tautaul13l7.recon.AOD.e5814_s3681_r13167
mc20_13TeV.345120.PowhegPy8EG_NNLOPS_nnlo_30_ggH125_tautaul13l7.recon.AOD.e5814_s3681_r13145
mc20_13TeV.345121.PowhegPy8EG_NNLOPS_nnlo_30_ggH125_tautaulm15hp20.recon.AOD.e5814_s3681_r13144
mc20_13TeV.345121.PowhegPy8EG_NNLOPS_nnlo_30_ggH125_tautaulm15hp20.recon.AOD.e5814_s3681_r13167
mc20_13TeV.345121.PowhegPy8EG_NNLOPS_nnlo_30_ggH125_tautaulm15hp20.recon.AOD.e5814_s3681_r13145
mc20_13TeV.345122.PowhegPy8EG_NNLOPS_nnlo_30_ggH125_tautaulp15hm20.recon.AOD.e5814_s3681_r13144
mc20_13TeV.345122.PowhegPy8EG_NNLOPS_nnlo_30_ggH125_tautaulp15hm20.recon.AOD.e5814_s3681_r13167
mc20_13TeV.345122.PowhegPy8EG_NNLOPS_nnlo_30_ggH125_tautaulp15hm20.recon.AOD.e5814_s3681_r13145
mc20_13TeV.345123.PowhegPy8EG_NNLOPS_nnlo_30_ggH125_tautauh30h20.recon.AOD.e5814_s3681_r13144
mc20_13TeV.345123.PowhegPy8EG_NNLOPS_nnlo_30_ggH125_tautauh30h20.recon.AOD.e5814_s3681_r13167
mc20_13TeV.345123.PowhegPy8EG_NNLOPS_nnlo_30_ggH125_tautauh30h20.recon.AOD.e5814_s3681_r13145
mc20_13TeV.345124.PowhegPy8EG_NNLOPS_nnlo_30_ggH125_etau_filt.recon.AOD.e5814_s3681_r13144
mc20_13TeV.345124.PowhegPy8EG_NNLOPS_nnlo_30_ggH125_etau_filt.recon.AOD.e5814_s3681_r13145
mc20_13TeV.345124.PowhegPy8EG_NNLOPS_nnlo_30_ggH125_etau_filt.recon.AOD.e5814_s3681_r13167
mc20_13TeV.345125.PowhegPy8EG_NNLOPS_nnlo_30_ggH125_mutau_filt.recon.AOD.e5814_s3681_r13144
mc20_13TeV.345125.PowhegPy8EG_NNLOPS_nnlo_30_ggH125_mutau_filt.recon.AOD.e5814_s3681_r13145
mc20_13TeV.345125.PowhegPy8EG_NNLOPS_nnlo_30_ggH125_mutau_filt.recon.AOD.e5814_s3681_r13167
mc20_13TeV.345211.PowhegPy8EG_NNPDF30_AZNLO_WmH125J_Winc_MINLO_tautau.recon.AOD.e5808_s3681_r13144
mc20_13TeV.345211.PowhegPy8EG_NNPDF30_AZNLO_WmH125J_Winc_MINLO_tautau.recon.AOD.e5808_s3681_r13145
mc20_13TeV.345211.PowhegPy8EG_NNPDF30_AZNLO_WmH125J_Winc_MINLO_tautau.recon.AOD.e5808_s3681_r13167
mc20_13TeV.345212.PowhegPy8EG_NNPDF30_AZNLO_WpH125J_Winc_MINLO_tautau.recon.AOD.e5808_s3681_r13144
mc20_13TeV.345212.PowhegPy8EG_NNPDF30_AZNLO_WpH125J_Winc_MINLO_tautau.recon.AOD.e5808_s3681_r13145
mc20_13TeV.345212.PowhegPy8EG_NNPDF30_AZNLO_WpH125J_Winc_MINLO_tautau.recon.AOD.e5808_s3681_r13167
mc20_13TeV.345213.PowhegPy8EG_NNPDF30_AZNLO_WmH125J_Winc_MINLO_etau.recon.AOD.e5808_s3681_r13144
mc20_13TeV.345213.PowhegPy8EG_NNPDF30_AZNLO_WmH125J_Winc_MINLO_etau.recon.AOD.e5808_s3681_r13145
mc20_13TeV.345213.PowhegPy8EG_NNPDF30_AZNLO_WmH125J_Winc_MINLO_etau.recon.AOD.e5808_s3681_r13167
mc20_13TeV.345214.PowhegPy8EG_NNPDF30_AZNLO_WpH125J_Winc_MINLO_etau.recon.AOD.e5808_s3681_r13144
mc20_13TeV.345214.PowhegPy8EG_NNPDF30_AZNLO_WpH125J_Winc_MINLO_etau.recon.AOD.e5808_s3681_r13145
mc20_13TeV.345214.PowhegPy8EG_NNPDF30_AZNLO_WpH125J_Winc_MINLO_etau.recon.AOD.e5808_s3681_r13167
mc20_13TeV.345215.PowhegPy8EG_NNPDF30_AZNLO_WmH125J_Winc_MINLO_mutau.recon.AOD.e5808_s3681_r13144
mc20_13TeV.345215.PowhegPy8EG_NNPDF30_AZNLO_WmH125J_Winc_MINLO_mutau.recon.AOD.e5808_s3681_r13145
mc20_13TeV.345215.PowhegPy8EG_NNPDF30_AZNLO_WmH125J_Winc_MINLO_mutau.recon.AOD.e5808_s3681_r13167
mc20_13TeV.345216.PowhegPy8EG_NNPDF30_AZNLO_WpH125J_Winc_MINLO_mutau.recon.AOD.e5808_s3681_r13144
mc20_13TeV.345216.PowhegPy8EG_NNPDF30_AZNLO_WpH125J_Winc_MINLO_mutau.recon.AOD.e5808_s3681_r13145
mc20_13TeV.345216.PowhegPy8EG_NNPDF30_AZNLO_WpH125J_Winc_MINLO_mutau.recon.AOD.e5808_s3681_r13167
mc20_13TeV.345217.PowhegPy8EG_NNPDF30_AZNLO_ZH125J_Zinc_MINLO_tautau.recon.AOD.e5808_s3681_r13144
mc20_13TeV.345217.PowhegPy8EG_NNPDF30_AZNLO_ZH125J_Zinc_MINLO_tautau.recon.AOD.e5808_s3681_r13167
mc20_13TeV.345217.PowhegPy8EG_NNPDF30_AZNLO_ZH125J_Zinc_MINLO_tautau.recon.AOD.e5808_s3681_r13145
mc20_13TeV.345218.PowhegPy8EG_NNPDF30_AZNLO_ZH125J_Zinc_MINLO_etau.recon.AOD.e5808_s3681_r13144
mc20_13TeV.345218.PowhegPy8EG_NNPDF30_AZNLO_ZH125J_Zinc_MINLO_etau.recon.AOD.e5808_s3681_r13145
mc20_13TeV.345218.PowhegPy8EG_NNPDF30_AZNLO_ZH125J_Zinc_MINLO_etau.recon.AOD.e5808_s3681_r13167
mc20_13TeV.345219.PowhegPy8EG_NNPDF30_AZNLO_ZH125J_Zinc_MINLO_mutau.recon.AOD.e5808_s3681_r13144
mc20_13TeV.345219.PowhegPy8EG_NNPDF30_AZNLO_ZH125J_Zinc_MINLO_mutau.recon.AOD.e5808_s3681_r13145
mc20_13TeV.345219.PowhegPy8EG_NNPDF30_AZNLO_ZH125J_Zinc_MINLO_mutau.recon.AOD.e5808_s3681_r13167
mc20_13TeV.345316.PowhegPythia8EvtGen_NNLOPS_nnlo_30_ggH125_Zy_Zll.recon.AOD.e5713_s3681_r13144
mc20_13TeV.345316.PowhegPythia8EvtGen_NNLOPS_nnlo_30_ggH125_Zy_Zll.recon.AOD.e5713_s3681_r13145
mc20_13TeV.345316.PowhegPythia8EvtGen_NNLOPS_nnlo_30_ggH125_Zy_Zll.recon.AOD.e5713_s3681_r13167
mc20_13TeV.345317.PowhegPythia8EvtGen_NNPDF30_AZNLO_WmH125J_Hyy_Wincl_MINLO.recon.AOD.e5734_s3681_r13144
mc20_13TeV.345317.PowhegPythia8EvtGen_NNPDF30_AZNLO_WmH125J_Hyy_Wincl_MINLO.recon.AOD.e5734_s3681_r13145
mc20_13TeV.345317.PowhegPythia8EvtGen_NNPDF30_AZNLO_WmH125J_Hyy_Wincl_MINLO.recon.AOD.e5734_s3681_r13167
mc20_13TeV.345318.PowhegPythia8EvtGen_NNPDF30_AZNLO_WpH125J_Hyy_Wincl_MINLO.recon.AOD.e5734_s3681_r13144
mc20_13TeV.345318.PowhegPythia8EvtGen_NNPDF30_AZNLO_WpH125J_Hyy_Wincl_MINLO.recon.AOD.e5734_s3681_r13145
mc20_13TeV.345318.PowhegPythia8EvtGen_NNPDF30_AZNLO_WpH125J_Hyy_Wincl_MINLO.recon.AOD.e5734_s3681_r13167
mc20_13TeV.345319.PowhegPythia8EvtGen_NNPDF30_AZNLO_ZH125J_Hyy_Zincl_MINLO.recon.AOD.e5743_s3681_r13144
mc20_13TeV.345319.PowhegPythia8EvtGen_NNPDF30_AZNLO_ZH125J_Hyy_Zincl_MINLO.recon.AOD.e5743_s3681_r13145
mc20_13TeV.345319.PowhegPythia8EvtGen_NNPDF30_AZNLO_ZH125J_Hyy_Zincl_MINLO.recon.AOD.e5743_s3681_r13167
mc20_13TeV.345320.PowhegPythia8EvtGen_NNPDF30_AZNLO_WmH125J_HZy_Wincl_MINLO.recon.AOD.e5734_s3681_r13144
mc20_13TeV.345320.PowhegPythia8EvtGen_NNPDF30_AZNLO_WmH125J_HZy_Wincl_MINLO.recon.AOD.e5734_s3681_r13145
mc20_13TeV.345320.PowhegPythia8EvtGen_NNPDF30_AZNLO_WmH125J_HZy_Wincl_MINLO.recon.AOD.e5734_s3681_r13167
mc20_13TeV.345321.PowhegPythia8EvtGen_NNPDF30_AZNLO_WpH125J_HZy_Wincl_MINLO.recon.AOD.e5734_s3681_r13144
mc20_13TeV.345321.PowhegPythia8EvtGen_NNPDF30_AZNLO_WpH125J_HZy_Wincl_MINLO.recon.AOD.e5734_s3681_r13145
mc20_13TeV.345321.PowhegPythia8EvtGen_NNPDF30_AZNLO_WpH125J_HZy_Wincl_MINLO.recon.AOD.e5734_s3681_r13167
mc20_13TeV.345322.PowhegPythia8EvtGen_NNPDF30_AZNLO_ZH125J_HZy_Zincl_MINLO.recon.AOD.e5743_s3681_r13144
mc20_13TeV.345322.PowhegPythia8EvtGen_NNPDF30_AZNLO_ZH125J_HZy_Zincl_MINLO.recon.AOD.e5743_s3681_r13145
mc20_13TeV.345322.PowhegPythia8EvtGen_NNPDF30_AZNLO_ZH125J_HZy_Zincl_MINLO.recon.AOD.e5743_s3681_r13167
mc20_13TeV.345324.PowhegPythia8EvtGen_NNLOPS_NN30_ggH125_WWlvlv_EF_15_5.recon.AOD.e5769_s3681_r13144
mc20_13TeV.345324.PowhegPythia8EvtGen_NNLOPS_NN30_ggH125_WWlvlv_EF_15_5.recon.AOD.e5769_s3681_r13145
mc20_13TeV.345324.PowhegPythia8EvtGen_NNLOPS_NN30_ggH125_WWlvlv_EF_15_5.recon.AOD.e5769_s3681_r13167
mc20_13TeV.345325.PowhegPythia8EvtGen_NNPDF3_AZNLO_WpH125J_MINLO_qqWWlvlv.recon.AOD.e5811_s3681_r13144
mc20_13TeV.345325.PowhegPythia8EvtGen_NNPDF3_AZNLO_WpH125J_MINLO_qqWWlvlv.recon.AOD.e5811_s3681_r13145
mc20_13TeV.345325.PowhegPythia8EvtGen_NNPDF3_AZNLO_WpH125J_MINLO_qqWWlvlv.recon.AOD.e5811_s3681_r13167
mc20_13TeV.345326.PowhegPythia8EvtGen_NNPDF3_AZNLO_WmH125J_MINLO_lvWWlvlv.recon.AOD.e5823_s3681_r13144
mc20_13TeV.345326.PowhegPythia8EvtGen_NNPDF3_AZNLO_WmH125J_MINLO_lvWWlvlv.recon.AOD.e5823_s3681_r13145
mc20_13TeV.345326.PowhegPythia8EvtGen_NNPDF3_AZNLO_WmH125J_MINLO_lvWWlvlv.recon.AOD.e5823_s3681_r13167
mc20_13TeV.345327.PowhegPythia8EvtGen_NNPDF3_AZNLO_WpH125J_MINLO_lvWWlvlv.recon.AOD.e5823_s3681_r13144
mc20_13TeV.345327.PowhegPythia8EvtGen_NNPDF3_AZNLO_WpH125J_MINLO_lvWWlvlv.recon.AOD.e5823_s3681_r13145
mc20_13TeV.345336.PowhegPythia8EvtGen_NNPDF3_AZNLO_ZH125J_MINLO_qqWWlvlv.recon.AOD.e5813_s3681_r13144
mc20_13TeV.345336.PowhegPythia8EvtGen_NNPDF3_AZNLO_ZH125J_MINLO_qqWWlvlv.recon.AOD.e5813_s3681_r13145
mc20_13TeV.345336.PowhegPythia8EvtGen_NNPDF3_AZNLO_ZH125J_MINLO_qqWWlvlv.recon.AOD.e5813_s3681_r13167
mc20_13TeV.345337.PowhegPythia8EvtGen_NNPDF3_AZNLO_ZH125J_MINLO_llWWlvlv.recon.AOD.e5810_s3681_r13144
mc20_13TeV.345337.PowhegPythia8EvtGen_NNPDF3_AZNLO_ZH125J_MINLO_llWWlvlv.recon.AOD.e5810_s3681_r13145
mc20_13TeV.345337.PowhegPythia8EvtGen_NNPDF3_AZNLO_ZH125J_MINLO_llWWlvlv.recon.AOD.e5810_s3681_r13167
mc20_13TeV.345433.PowhegPythia8EvtGen_NNPDF3_AZNLO_WmH125J_MINLO_qqWWlvlv.recon.AOD.e5811_s3681_r13144
mc20_13TeV.345433.PowhegPythia8EvtGen_NNPDF3_AZNLO_WmH125J_MINLO_qqWWlvlv.recon.AOD.e5811_s3681_r13145
mc20_13TeV.345433.PowhegPythia8EvtGen_NNPDF3_AZNLO_WmH125J_MINLO_qqWWlvlv.recon.AOD.e5811_s3681_r13167
mc20_13TeV.345445.PowhegPythia8EvtGen_NNPDF3_AZNLO_ZH125J_MINLO_vvWWlvlv.recon.AOD.e5810_s3681_r13144
mc20_13TeV.345445.PowhegPythia8EvtGen_NNPDF3_AZNLO_ZH125J_MINLO_vvWWlvlv.recon.AOD.e5810_s3681_r13145
mc20_13TeV.345445.PowhegPythia8EvtGen_NNPDF3_AZNLO_ZH125J_MINLO_vvWWlvlv.recon.AOD.e5810_s3681_r13167
mc20_13TeV.345446.PowhegPythia8EvtGen_NNPDF3_AZNLO_ggZH125J_MINLO_llWWlvlv.recon.AOD.e5863_s3681_r13144
mc20_13TeV.345446.PowhegPythia8EvtGen_NNPDF3_AZNLO_ggZH125J_MINLO_llWWlvlv.recon.AOD.e5863_s3681_r13145
mc20_13TeV.345446.PowhegPythia8EvtGen_NNPDF3_AZNLO_ggZH125J_MINLO_llWWlvlv.recon.AOD.e5863_s3681_r13167
mc20_13TeV.345596.PowhegPythia8EvtGen_NNPDF3_AZNLO_ggZH125_Zinc_HZZinv.recon.AOD.e6025_s3681_r13144
mc20_13TeV.345596.PowhegPythia8EvtGen_NNPDF3_AZNLO_ggZH125_Zinc_HZZinv.recon.AOD.e6025_s3681_r13145
mc20_13TeV.345596.PowhegPythia8EvtGen_NNPDF3_AZNLO_ggZH125_Zinc_HZZinv.recon.AOD.e6025_s3681_r13167
mc20_13TeV.345705.Sherpa_222_NNPDF30NNLO_ggllll_0M4l130.recon.AOD.e6213_s3681_r13144
mc20_13TeV.345705.Sherpa_222_NNPDF30NNLO_ggllll_0M4l130.recon.AOD.e6213_s3681_r13167
mc20_13TeV.345705.Sherpa_222_NNPDF30NNLO_ggllll_0M4l130.recon.AOD.e6213_s3681_r13145
mc20_13TeV.345706.Sherpa_222_NNPDF30NNLO_ggllll_130M4l.recon.AOD.e6213_s3681_r13144
mc20_13TeV.345706.Sherpa_222_NNPDF30NNLO_ggllll_130M4l.recon.AOD.e6213_s3681_r13167
mc20_13TeV.345718.Sherpa_222_NNPDF30NNLO_ggllvvWW.recon.AOD.e6525_s3681_r13144
mc20_13TeV.345718.Sherpa_222_NNPDF30NNLO_ggllvvWW.recon.AOD.e6525_s3681_r13145
mc20_13TeV.345718.Sherpa_222_NNPDF30NNLO_ggllvvWW.recon.AOD.e6525_s3681_r13167
mc20_13TeV.345723.Sherpa_222_NNPDF30NNLO_ggllvvZZ.recon.AOD.e6213_s3681_r13144
mc20_13TeV.345723.Sherpa_222_NNPDF30NNLO_ggllvvZZ.recon.AOD.e6213_s3681_r13167
mc20_13TeV.345723.Sherpa_222_NNPDF30NNLO_ggllvvZZ.recon.AOD.e6213_s3681_r13145
mc20_13TeV.345833.PowhegPythia8EvtGen_NNPDF30_AZNLOCTEQ6L1_VBFH125_Zllgam.recon.AOD.e7111_s3681_r13144
mc20_13TeV.345833.PowhegPythia8EvtGen_NNPDF30_AZNLOCTEQ6L1_VBFH125_Zllgam.recon.AOD.e7111_s3681_r13145
mc20_13TeV.345833.PowhegPythia8EvtGen_NNPDF30_AZNLOCTEQ6L1_VBFH125_Zllgam.recon.AOD.e7111_s3681_r13167
mc20_13TeV.345834.PowhegPythia8EvtGen_NNPDF30_AZNLOCTEQ6L1_VBFH125_gamstargam.recon.AOD.e7111_s3681_r13144
mc20_13TeV.345834.PowhegPythia8EvtGen_NNPDF30_AZNLOCTEQ6L1_VBFH125_gamstargam.recon.AOD.e7111_s3681_r13145
mc20_13TeV.345834.PowhegPythia8EvtGen_NNPDF30_AZNLOCTEQ6L1_VBFH125_gamstargam.recon.AOD.e7111_s3681_r13167
mc20_13TeV.345935.PhPy8EG_A14_ttbarMET100_200_hdamp258p75_nonallhad.recon.AOD.e6620_s3681_r13144
mc20_13TeV.345935.PhPy8EG_A14_ttbarMET100_200_hdamp258p75_nonallhad.recon.AOD.e6620_s3681_r13145
mc20_13TeV.345935.PhPy8EG_A14_ttbarMET100_200_hdamp258p75_nonallhad.recon.AOD.e6620_s3681_r13167
mc20_13TeV.345948.PowhegPy8EG_NNPDF30_AZNLOCTEQ6L1_VBFH125_WWlvlv.recon.AOD.e7172_s3681_r13144
mc20_13TeV.345948.PowhegPy8EG_NNPDF30_AZNLOCTEQ6L1_VBFH125_WWlvlv.recon.AOD.e7172_s3681_r13145
mc20_13TeV.345948.PowhegPy8EG_NNPDF30_AZNLOCTEQ6L1_VBFH125_WWlvlv.recon.AOD.e7172_s3681_r13167
mc20_13TeV.345949.PowhegPythia8EvtGen_NNPDF30_AZNLOCTEQ6L1_VBFH125_bb.recon.AOD.e7252_s3681_r13144
mc20_13TeV.345949.PowhegPythia8EvtGen_NNPDF30_AZNLOCTEQ6L1_VBFH125_bb.recon.AOD.e7252_s3681_r13145
mc20_13TeV.345949.PowhegPythia8EvtGen_NNPDF30_AZNLOCTEQ6L1_VBFH125_bb.recon.AOD.e7252_s3681_r13167
mc20_13TeV.345961.PowhegPythia8EvtGen_NNLOPS_nnlo_30_ggH125_gamstargam.recon.AOD.e6740_s3681_r13144
mc20_13TeV.345961.PowhegPythia8EvtGen_NNLOPS_nnlo_30_ggH125_gamstargam.recon.AOD.e6740_s3681_r13145
mc20_13TeV.345961.PowhegPythia8EvtGen_NNLOPS_nnlo_30_ggH125_gamstargam.recon.AOD.e6740_s3681_r13167
mc20_13TeV.345963.PowhegPythia8EvtGen_NNPDF30_AZNLO_WmH125J_Hgamstargam_MINLO.recon.AOD.e6740_s3681_r13144
mc20_13TeV.345963.PowhegPythia8EvtGen_NNPDF30_AZNLO_WmH125J_Hgamstargam_MINLO.recon.AOD.e6740_s3681_r13145
mc20_13TeV.345963.PowhegPythia8EvtGen_NNPDF30_AZNLO_WmH125J_Hgamstargam_MINLO.recon.AOD.e6740_s3681_r13167
mc20_13TeV.345964.PowhegPythia8EvtGen_NNPDF30_AZNLO_WpH125J_Hgamstargam_MINLO.recon.AOD.e6740_s3681_r13144
mc20_13TeV.345964.PowhegPythia8EvtGen_NNPDF30_AZNLO_WpH125J_Hgamstargam_MINLO.recon.AOD.e6740_s3681_r13145
mc20_13TeV.345964.PowhegPythia8EvtGen_NNPDF30_AZNLO_WpH125J_Hgamstargam_MINLO.recon.AOD.e6740_s3681_r13167
mc20_13TeV.345965.PowhegPythia8EvtGen_NNPDF30_AZNLO_ZH125J_Hgamstargam_MINLO.recon.AOD.e6740_s3681_r13144
mc20_13TeV.345965.PowhegPythia8EvtGen_NNPDF30_AZNLO_ZH125J_Hgamstargam_MINLO.recon.AOD.e6740_s3681_r13145
mc20_13TeV.345965.PowhegPythia8EvtGen_NNPDF30_AZNLO_ZH125J_Hgamstargam_MINLO.recon.AOD.e6740_s3681_r13167
mc20_13TeV.346190.PowhegPy8EG_NNPDF30_AZNLOCTEQ6L1_VBFH125_tautaul13l7.recon.AOD.e7259_s3681_r13144
mc20_13TeV.346190.PowhegPy8EG_NNPDF30_AZNLOCTEQ6L1_VBFH125_tautaul13l7.recon.AOD.e7259_s3681_r13167
mc20_13TeV.346190.PowhegPy8EG_NNPDF30_AZNLOCTEQ6L1_VBFH125_tautaul13l7.recon.AOD.e7259_s3681_r13145
mc20_13TeV.346191.PowhegPy8EG_NNPDF30_AZNLOCTEQ6L1_VBFH125_tautaulm15hp20.recon.AOD.e7259_s3681_r13144
mc20_13TeV.346191.PowhegPy8EG_NNPDF30_AZNLOCTEQ6L1_VBFH125_tautaulm15hp20.recon.AOD.e7259_s3681_r13167
mc20_13TeV.346191.PowhegPy8EG_NNPDF30_AZNLOCTEQ6L1_VBFH125_tautaulm15hp20.recon.AOD.e7259_s3681_r13145
mc20_13TeV.346192.PowhegPy8EG_NNPDF30_AZNLOCTEQ6L1_VBFH125_tautaulp15hm20.recon.AOD.e7259_s3681_r13144
mc20_13TeV.346192.PowhegPy8EG_NNPDF30_AZNLOCTEQ6L1_VBFH125_tautaulp15hm20.recon.AOD.e7259_s3681_r13167
mc20_13TeV.346192.PowhegPy8EG_NNPDF30_AZNLOCTEQ6L1_VBFH125_tautaulp15hm20.recon.AOD.e7259_s3681_r13145
mc20_13TeV.346193.PowhegPy8EG_NNPDF30_AZNLOCTEQ6L1_VBFH125_tautauh30h20.recon.AOD.e7259_s3681_r13144
mc20_13TeV.346193.PowhegPy8EG_NNPDF30_AZNLOCTEQ6L1_VBFH125_tautauh30h20.recon.AOD.e7259_s3681_r13167
mc20_13TeV.346193.PowhegPy8EG_NNPDF30_AZNLOCTEQ6L1_VBFH125_tautauh30h20.recon.AOD.e7259_s3681_r13145
mc20_13TeV.346194.PowhegPy8EG_NNPDF30_AZNLOCTEQ6L1_VBFH125_etau_filt.recon.AOD.e7259_s3681_r13144
mc20_13TeV.346194.PowhegPy8EG_NNPDF30_AZNLOCTEQ6L1_VBFH125_etau_filt.recon.AOD.e7259_s3681_r13145
mc20_13TeV.346194.PowhegPy8EG_NNPDF30_AZNLOCTEQ6L1_VBFH125_etau_filt.recon.AOD.e7259_s3681_r13167
mc20_13TeV.346195.PowhegPy8EG_NNPDF30_AZNLOCTEQ6L1_VBFH125_mutau_filt.recon.AOD.e7259_s3681_r13144
mc20_13TeV.346195.PowhegPy8EG_NNPDF30_AZNLOCTEQ6L1_VBFH125_mutau_filt.recon.AOD.e7259_s3681_r13145
mc20_13TeV.346195.PowhegPy8EG_NNPDF30_AZNLOCTEQ6L1_VBFH125_mutau_filt.recon.AOD.e7259_s3681_r13167
mc20_13TeV.346198.PhPy8EG_A14NNPDF23_NNPDF30ME_ttH125_Zgam.recon.AOD.e7520_s3681_r13144
mc20_13TeV.346198.PhPy8EG_A14NNPDF23_NNPDF30ME_ttH125_Zgam.recon.AOD.e7520_s3681_r13145
mc20_13TeV.346198.PhPy8EG_A14NNPDF23_NNPDF30ME_ttH125_Zgam.recon.AOD.e7520_s3681_r13167
mc20_13TeV.346214.PowhegPy8EG_NNPDF30_AZNLOCTEQ6L1_VBFH125_gamgam.recon.AOD.e6970_s3681_r13144
mc20_13TeV.346214.PowhegPy8EG_NNPDF30_AZNLOCTEQ6L1_VBFH125_gamgam.recon.AOD.e6970_s3681_r13145
mc20_13TeV.346214.PowhegPy8EG_NNPDF30_AZNLOCTEQ6L1_VBFH125_gamgam.recon.AOD.e6970_s3681_r13167
mc20_13TeV.346228.PowhegPy8EG_NNPDF30_AZNLOCTEQ6L1_VBFH125_ZZ4lep_notau.recon.AOD.e7249_s3681_r13144
mc20_13TeV.346228.PowhegPy8EG_NNPDF30_AZNLOCTEQ6L1_VBFH125_ZZ4lep_notau.recon.AOD.e7249_s3681_r13145
mc20_13TeV.346228.PowhegPy8EG_NNPDF30_AZNLOCTEQ6L1_VBFH125_ZZ4lep_notau.recon.AOD.e7249_s3681_r13167
mc20_13TeV.346310.PowhegPythia8EvtGen_NNPDF30_AZNLO_ZH125J_Zincl_H_incl_MINLO.recon.AOD.e7151_s3681_r13144
mc20_13TeV.346310.PowhegPythia8EvtGen_NNPDF30_AZNLO_ZH125J_Zincl_H_incl_MINLO.recon.AOD.e7151_s3681_r13145
mc20_13TeV.346310.PowhegPythia8EvtGen_NNPDF30_AZNLO_ZH125J_Zincl_H_incl_MINLO.recon.AOD.e7151_s3681_r13167
mc20_13TeV.346311.PowhegPythia8EvtGen_NNPDF30_AZNLO_WpH125J_Wincl_H_incl_MINLO.recon.AOD.e7151_s3681_r13144
mc20_13TeV.346311.PowhegPythia8EvtGen_NNPDF30_AZNLO_WpH125J_Wincl_H_incl_MINLO.recon.AOD.e7151_s3681_r13145
mc20_13TeV.346311.PowhegPythia8EvtGen_NNPDF30_AZNLO_WpH125J_Wincl_H_incl_MINLO.recon.AOD.e7151_s3681_r13167
mc20_13TeV.346312.PowhegPythia8EvtGen_NNPDF30_AZNLO_WmH125J_Wincl_H_incl_MINLO.recon.AOD.e7151_s3681_r13144
mc20_13TeV.346312.PowhegPythia8EvtGen_NNPDF30_AZNLO_WmH125J_Wincl_H_incl_MINLO.recon.AOD.e7151_s3681_r13145
mc20_13TeV.346312.PowhegPythia8EvtGen_NNPDF30_AZNLO_WmH125J_Wincl_H_incl_MINLO.recon.AOD.e7151_s3681_r13167
mc20_13TeV.346317.PowhegPy8EG_NNPDF30_AZNLOCTEQ6L1_VBFH125_incl.recon.AOD.e7151_s3681_r13144
mc20_13TeV.346317.PowhegPy8EG_NNPDF30_AZNLOCTEQ6L1_VBFH125_incl.recon.AOD.e7151_s3681_r13145
mc20_13TeV.346317.PowhegPy8EG_NNPDF30_AZNLOCTEQ6L1_VBFH125_incl.recon.AOD.e7151_s3681_r13167
mc20_13TeV.346324.PowhegPy8EG_NNPDF30_AZNLO_WmH125J_MINLO_lvtautau_filt_VpT.recon.AOD.e7554_s3681_r13144
mc20_13TeV.346324.PowhegPy8EG_NNPDF30_AZNLO_WmH125J_MINLO_lvtautau_filt_VpT.recon.AOD.e7554_s3681_r13145
mc20_13TeV.346324.PowhegPy8EG_NNPDF30_AZNLO_WmH125J_MINLO_lvtautau_filt_VpT.recon.AOD.e7554_s3681_r13167
mc20_13TeV.346325.PowhegPy8EG_NNPDF30_AZNLO_WpH125J_MINLO_lvtautau_filt_VpT.recon.AOD.e7554_s3681_r13144
mc20_13TeV.346325.PowhegPy8EG_NNPDF30_AZNLO_WpH125J_MINLO_lvtautau_filt_VpT.recon.AOD.e7554_s3681_r13145
mc20_13TeV.346325.PowhegPy8EG_NNPDF30_AZNLO_WpH125J_MINLO_lvtautau_filt_VpT.recon.AOD.e7554_s3681_r13167
mc20_13TeV.346326.PowhegPy8EG_NNPDF30_AZNLO_ZH125J_MINLO_lltautau_filt_VpT.recon.AOD.e7554_s3681_r13144
mc20_13TeV.346326.PowhegPy8EG_NNPDF30_AZNLO_ZH125J_MINLO_lltautau_filt_VpT.recon.AOD.e7554_s3681_r13145
mc20_13TeV.346326.PowhegPy8EG_NNPDF30_AZNLO_ZH125J_MINLO_lltautau_filt_VpT.recon.AOD.e7554_s3681_r13167
mc20_13TeV.346329.PowhegPy8EG_NNPDF30_AZNLO_ggZH125_lltautau_filt.recon.AOD.e7554_s3681_r13144
mc20_13TeV.346329.PowhegPy8EG_NNPDF30_AZNLO_ggZH125_lltautau_filt.recon.AOD.e7554_s3681_r13145
mc20_13TeV.346329.PowhegPy8EG_NNPDF30_AZNLO_ggZH125_lltautau_filt.recon.AOD.e7554_s3681_r13167
mc20_13TeV.346340.PowhegPy8EG_A14NNPDF23_NNPDF30ME_ttH125_ZZ4l_allhad.recon.AOD.e7079_s3681_r13144
mc20_13TeV.346340.PowhegPy8EG_A14NNPDF23_NNPDF30ME_ttH125_ZZ4l_allhad.recon.AOD.e7079_s3681_r13145
mc20_13TeV.346340.PowhegPy8EG_A14NNPDF23_NNPDF30ME_ttH125_ZZ4l_allhad.recon.AOD.e7079_s3681_r13167
mc20_13TeV.346341.PowhegPy8EG_A14NNPDF23_NNPDF30ME_ttH125_ZZ4l_semilep.recon.AOD.e7079_s3681_r13144
mc20_13TeV.346341.PowhegPy8EG_A14NNPDF23_NNPDF30ME_ttH125_ZZ4l_semilep.recon.AOD.e7079_s3681_r13145
mc20_13TeV.346341.PowhegPy8EG_A14NNPDF23_NNPDF30ME_ttH125_ZZ4l_semilep.recon.AOD.e7079_s3681_r13167
mc20_13TeV.346342.PowhegPy8EG_A14NNPDF23_NNPDF30ME_ttH125_ZZ4l_dilep.recon.AOD.e7079_s3681_r13144
mc20_13TeV.346342.PowhegPy8EG_A14NNPDF23_NNPDF30ME_ttH125_ZZ4l_dilep.recon.AOD.e7079_s3681_r13145
mc20_13TeV.346342.PowhegPy8EG_A14NNPDF23_NNPDF30ME_ttH125_ZZ4l_dilep.recon.AOD.e7079_s3681_r13167
mc20_13TeV.346343.PhPy8EG_A14NNPDF23_NNPDF30ME_ttH125_allhad.recon.AOD.e7148_s3681_r13144
mc20_13TeV.346343.PhPy8EG_A14NNPDF23_NNPDF30ME_ttH125_allhad.recon.AOD.e7148_s3681_r13167
mc20_13TeV.346343.PhPy8EG_A14NNPDF23_NNPDF30ME_ttH125_allhad.recon.AOD.e7148_s3681_r13145
mc20_13TeV.346344.PhPy8EG_A14NNPDF23_NNPDF30ME_ttH125_semilep.recon.AOD.e7148_s3681_r13144
mc20_13TeV.346344.PhPy8EG_A14NNPDF23_NNPDF30ME_ttH125_semilep.recon.AOD.e7148_s3681_r13167
mc20_13TeV.346344.PhPy8EG_A14NNPDF23_NNPDF30ME_ttH125_semilep.recon.AOD.e7148_s3681_r13145
mc20_13TeV.346345.PhPy8EG_A14NNPDF23_NNPDF30ME_ttH125_dilep.recon.AOD.e7148_s3681_r13144
mc20_13TeV.346345.PhPy8EG_A14NNPDF23_NNPDF30ME_ttH125_dilep.recon.AOD.e7148_s3681_r13167
mc20_13TeV.346345.PhPy8EG_A14NNPDF23_NNPDF30ME_ttH125_dilep.recon.AOD.e7148_s3681_r13145
mc20_13TeV.346414.aMcAtNloPythia8EvtGen_tHjb125_4fl_ZZ4l.recon.AOD.e7273_s3681_r13144
mc20_13TeV.346414.aMcAtNloPythia8EvtGen_tHjb125_4fl_ZZ4l.recon.AOD.e7273_s3681_r13145
mc20_13TeV.346414.aMcAtNloPythia8EvtGen_tHjb125_4fl_ZZ4l.recon.AOD.e7273_s3681_r13167
mc20_13TeV.346511.aMcAtNloPythia8EvtGen_tWH125_ZZ4l.recon.AOD.e7427_s3681_r13144
mc20_13TeV.346511.aMcAtNloPythia8EvtGen_tWH125_ZZ4l.recon.AOD.e7427_s3681_r13145
mc20_13TeV.346511.aMcAtNloPythia8EvtGen_tWH125_ZZ4l.recon.AOD.e7427_s3681_r13167
mc20_13TeV.346524.PowhegPythia8EvtGen_NNPDF3_AZNLO_ggZH125J_MINLO_ZinclWWlvlv.recon.AOD.e7523_s3681_r13144
mc20_13TeV.346524.PowhegPythia8EvtGen_NNPDF3_AZNLO_ggZH125J_MINLO_ZinclWWlvlv.recon.AOD.e7523_s3681_r13145
mc20_13TeV.346524.PowhegPythia8EvtGen_NNPDF3_AZNLO_ggZH125J_MINLO_ZinclWWlvlv.recon.AOD.e7523_s3681_r13167
mc20_13TeV.346525.PowhegPythia8EvtGen_A14NNPDF23_NNPDF30ME_ttH125_gamgam.recon.AOD.e7488_s3681_r13144
mc20_13TeV.346525.PowhegPythia8EvtGen_A14NNPDF23_NNPDF30ME_ttH125_gamgam.recon.AOD.e7488_s3681_r13145
mc20_13TeV.346525.PowhegPythia8EvtGen_A14NNPDF23_NNPDF30ME_ttH125_gamgam.recon.AOD.e7488_s3681_r13167
mc20_13TeV.346531.PowhegPy8EG_NNLOPS_nnlo30_ggH125_tautaulm15hp20_unpol.recon.AOD.e7610_s3681_r13144
mc20_13TeV.346531.PowhegPy8EG_NNLOPS_nnlo30_ggH125_tautaulm15hp20_unpol.recon.AOD.e7610_s3681_r13145
mc20_13TeV.346531.PowhegPy8EG_NNLOPS_nnlo30_ggH125_tautaulm15hp20_unpol.recon.AOD.e7610_s3681_r13167
mc20_13TeV.346532.PowhegPy8EG_NNLOPS_nnlo30_ggH125_tautaulp15hm20_unpol.recon.AOD.e7610_s3681_r13144
mc20_13TeV.346532.PowhegPy8EG_NNLOPS_nnlo30_ggH125_tautaulp15hm20_unpol.recon.AOD.e7610_s3681_r13145
mc20_13TeV.346532.PowhegPy8EG_NNLOPS_nnlo30_ggH125_tautaulp15hm20_unpol.recon.AOD.e7610_s3681_r13167
mc20_13TeV.346560.PowhegPythia8EvtGen_NNPDF3_AZNLO_WmH125J_MINLO_lvWWlvqq.recon.AOD.e7552_s3681_r13144
mc20_13TeV.346560.PowhegPythia8EvtGen_NNPDF3_AZNLO_WmH125J_MINLO_lvWWlvqq.recon.AOD.e7552_s3681_r13145
mc20_13TeV.346560.PowhegPythia8EvtGen_NNPDF3_AZNLO_WmH125J_MINLO_lvWWlvqq.recon.AOD.e7552_s3681_r13167
mc20_13TeV.346561.PowhegPythia8EvtGen_NNPDF3_AZNLO_WpH125J_MINLO_lvWWlvqq.recon.AOD.e7552_s3681_r13144
mc20_13TeV.346561.PowhegPythia8EvtGen_NNPDF3_AZNLO_WpH125J_MINLO_lvWWlvqq.recon.AOD.e7552_s3681_r13145
mc20_13TeV.346561.PowhegPythia8EvtGen_NNPDF3_AZNLO_WpH125J_MINLO_lvWWlvqq.recon.AOD.e7552_s3681_r13167
mc20_13TeV.346564.PowhegPy8EG_NNLOPS_nnlo30_ggH125_tautauh30h20_unpol.recon.AOD.e7610_s3681_r13144
mc20_13TeV.346564.PowhegPy8EG_NNLOPS_nnlo30_ggH125_tautauh30h20_unpol.recon.AOD.e7610_s3681_r13145
mc20_13TeV.346564.PowhegPy8EG_NNLOPS_nnlo30_ggH125_tautauh30h20_unpol.recon.AOD.e7610_s3681_r13167
mc20_13TeV.346569.PowhegPy8EG_NNPDF30_VBFH125_tautaulm15hp20_unpol.recon.AOD.e7639_s3681_r13144
mc20_13TeV.346569.PowhegPy8EG_NNPDF30_VBFH125_tautaulm15hp20_unpol.recon.AOD.e7639_s3681_r13145
mc20_13TeV.346569.PowhegPy8EG_NNPDF30_VBFH125_tautaulm15hp20_unpol.recon.AOD.e7639_s3681_r13167
mc20_13TeV.346570.PowhegPy8EG_NNPDF30_VBFH125_tautaulp15hm20_unpol.recon.AOD.e7639_s3681_r13144
mc20_13TeV.346570.PowhegPy8EG_NNPDF30_VBFH125_tautaulp15hm20_unpol.recon.AOD.e7639_s3681_r13145
mc20_13TeV.346570.PowhegPy8EG_NNPDF30_VBFH125_tautaulp15hm20_unpol.recon.AOD.e7639_s3681_r13167
mc20_13TeV.346573.PowhegPy8EG_NNPDF30_VBFH125_tautauh30h20_unpol.recon.AOD.e7639_s3681_r13144
mc20_13TeV.346573.PowhegPy8EG_NNPDF30_VBFH125_tautauh30h20_unpol.recon.AOD.e7639_s3681_r13145
mc20_13TeV.346573.PowhegPy8EG_NNPDF30_VBFH125_tautauh30h20_unpol.recon.AOD.e7639_s3681_r13167
mc20_13TeV.346645.PowhegPythia8EvtGen_NNPDF30_AZNLO_ZH125J_Zincl_MINLO_shw.recon.AOD.e7735_s3681_r13144
mc20_13TeV.346645.PowhegPythia8EvtGen_NNPDF30_AZNLO_ZH125J_Zincl_MINLO_shw.recon.AOD.e7735_s3681_r13167
mc20_13TeV.346645.PowhegPythia8EvtGen_NNPDF30_AZNLO_ZH125J_Zincl_MINLO_shw.recon.AOD.e7735_s3681_r13145
mc20_13TeV.346646.PowhegPythia8EvtGen_NNPDF30_AZNLO_WpH125J_Wincl_MINLO_shw.recon.AOD.e7735_s3681_r13144
mc20_13TeV.346646.PowhegPythia8EvtGen_NNPDF30_AZNLO_WpH125J_Wincl_MINLO_shw.recon.AOD.e7735_s3681_r13167
mc20_13TeV.346646.PowhegPythia8EvtGen_NNPDF30_AZNLO_WpH125J_Wincl_MINLO_shw.recon.AOD.e7735_s3681_r13145
mc20_13TeV.346677.aMcAtNloPythia8EvtGen_tHjb125_4fl_CPalpha_0_gamgam.recon.AOD.e7815_s3681_r13144
mc20_13TeV.346677.aMcAtNloPythia8EvtGen_tHjb125_4fl_CPalpha_0_gamgam.recon.AOD.e7815_s3681_r13145
mc20_13TeV.346677.aMcAtNloPythia8EvtGen_tHjb125_4fl_CPalpha_0_gamgam.recon.AOD.e7815_s3681_r13167
mc20_13TeV.346693.PowhegPythia8EvtGen_NNPDF3_AZNLO_ZH125J_MINLO_llInv_VpT.recon.AOD.e7862_s3681_r13144
mc20_13TeV.346693.PowhegPythia8EvtGen_NNPDF3_AZNLO_ZH125J_MINLO_llInv_VpT.recon.AOD.e7862_s3681_r13145
mc20_13TeV.346693.PowhegPythia8EvtGen_NNPDF3_AZNLO_ZH125J_MINLO_llInv_VpT.recon.AOD.e7862_s3681_r13167
mc20_13TeV.346694.PowhegPythia8EvtGen_NNPDF3_AZNLO_ggZH125_llInv.recon.AOD.e7854_s3681_r13144
mc20_13TeV.346694.PowhegPythia8EvtGen_NNPDF3_AZNLO_ggZH125_llInv.recon.AOD.e7854_s3681_r13145
mc20_13TeV.346694.PowhegPythia8EvtGen_NNPDF3_AZNLO_ggZH125_llInv.recon.AOD.e7854_s3681_r13167
mc20_13TeV.346695.PhPy8EG_Prophecy_NNLOPS_nnlo_30_ggH125_ZZ4l.recon.AOD.e7769_s3681_r13144
mc20_13TeV.346695.PhPy8EG_Prophecy_NNLOPS_nnlo_30_ggH125_ZZ4l.recon.AOD.e7769_s3681_r13145
mc20_13TeV.346695.PhPy8EG_Prophecy_NNLOPS_nnlo_30_ggH125_ZZ4l.recon.AOD.e7769_s3681_r13167
mc20_13TeV.346696.PhPy8EG_Prophecy_NNPDF30_AZNLOCTEQ6L1_VBFH125_ZZ4lep_notau.recon.AOD.e7840_s3681_r13144
mc20_13TeV.346696.PhPy8EG_Prophecy_NNPDF30_AZNLOCTEQ6L1_VBFH125_ZZ4lep_notau.recon.AOD.e7840_s3681_r13145
mc20_13TeV.346696.PhPy8EG_Prophecy_NNPDF30_AZNLOCTEQ6L1_VBFH125_ZZ4lep_notau.recon.AOD.e7840_s3681_r13167
mc20_13TeV.346697.PhPy8EG_Prophecy_NNPDF3_AZNLO_ggZH125_ZZ4lepZinc.recon.AOD.e7840_s3681_r13144
mc20_13TeV.346697.PhPy8EG_Prophecy_NNPDF3_AZNLO_ggZH125_ZZ4lepZinc.recon.AOD.e7840_s3681_r13145
mc20_13TeV.346697.PhPy8EG_Prophecy_NNPDF3_AZNLO_ggZH125_ZZ4lepZinc.recon.AOD.e7840_s3681_r13167
mc20_13TeV.346698.PhPy8EG_Prophecy_NNPDF30_AZNLO_ZH125J_Zincl_MINLO.recon.AOD.e7840_s3681_r13144
mc20_13TeV.346698.PhPy8EG_Prophecy_NNPDF30_AZNLO_ZH125J_Zincl_MINLO.recon.AOD.e7840_s3681_r13145
mc20_13TeV.346698.PhPy8EG_Prophecy_NNPDF30_AZNLO_ZH125J_Zincl_MINLO.recon.AOD.e7840_s3681_r13167
mc20_13TeV.346699.PhPy8EG_Prophecy_NNPDF30_AZNLO_WpH125J_Wincl_MINLO.recon.AOD.e7840_s3681_r13144
mc20_13TeV.346699.PhPy8EG_Prophecy_NNPDF30_AZNLO_WpH125J_Wincl_MINLO.recon.AOD.e7840_s3681_r13145
mc20_13TeV.346699.PhPy8EG_Prophecy_NNPDF30_AZNLO_WpH125J_Wincl_MINLO.recon.AOD.e7840_s3681_r13167
mc20_13TeV.346700.PhPy8EG_Prophecy_NNPDF30_AZNLO_WmH125J_Wincl_MINLO.recon.AOD.e7840_s3681_r13144
mc20_13TeV.346700.PhPy8EG_Prophecy_NNPDF30_AZNLO_WmH125J_Wincl_MINLO.recon.AOD.e7840_s3681_r13145
mc20_13TeV.346700.PhPy8EG_Prophecy_NNPDF30_AZNLO_WmH125J_Wincl_MINLO.recon.AOD.e7840_s3681_r13167
mc20_13TeV.346701.PhPy8EG_Hto4l_NNLOPS_nnlo_30_ggH125_ZZ4l.recon.AOD.e7769_s3681_r13144
mc20_13TeV.346701.PhPy8EG_Hto4l_NNLOPS_nnlo_30_ggH125_ZZ4l.recon.AOD.e7769_s3681_r13145
mc20_13TeV.346701.PhPy8EG_Hto4l_NNLOPS_nnlo_30_ggH125_ZZ4l.recon.AOD.e7769_s3681_r13167
mc20_13TeV.346702.PhPy8EG_Hto4l_NNPDF30_AZNLOCTEQ6L1_VBFH125_ZZ4lep_notau.recon.AOD.e7842_s3681_r13144
mc20_13TeV.346702.PhPy8EG_Hto4l_NNPDF30_AZNLOCTEQ6L1_VBFH125_ZZ4lep_notau.recon.AOD.e7842_s3681_r13145
mc20_13TeV.346702.PhPy8EG_Hto4l_NNPDF30_AZNLOCTEQ6L1_VBFH125_ZZ4lep_notau.recon.AOD.e7842_s3681_r13167
mc20_13TeV.346703.PhPy8EG_Hto4l_NNPDF3_AZNLO_ggZH125_ZZ4lepZinc.recon.AOD.e7840_s3681_r13144
mc20_13TeV.346703.PhPy8EG_Hto4l_NNPDF3_AZNLO_ggZH125_ZZ4lepZinc.recon.AOD.e7840_s3681_r13145
mc20_13TeV.346703.PhPy8EG_Hto4l_NNPDF3_AZNLO_ggZH125_ZZ4lepZinc.recon.AOD.e7840_s3681_r13167
mc20_13TeV.346704.PhPy8EG_Hto4l_NNPDF30_AZNLO_ZH125J_Zincl_MINLO.recon.AOD.e7840_s3681_r13144
mc20_13TeV.346704.PhPy8EG_Hto4l_NNPDF30_AZNLO_ZH125J_Zincl_MINLO.recon.AOD.e7840_s3681_r13145
mc20_13TeV.346704.PhPy8EG_Hto4l_NNPDF30_AZNLO_ZH125J_Zincl_MINLO.recon.AOD.e7840_s3681_r13167
mc20_13TeV.346705.PhPy8EG_Hto4l_NNPDF30_AZNLO_WpH125J_Wincl_MINLO.recon.AOD.e7840_s3681_r13144
mc20_13TeV.346705.PhPy8EG_Hto4l_NNPDF30_AZNLO_WpH125J_Wincl_MINLO.recon.AOD.e7840_s3681_r13145
mc20_13TeV.346705.PhPy8EG_Hto4l_NNPDF30_AZNLO_WpH125J_Wincl_MINLO.recon.AOD.e7840_s3681_r13167
mc20_13TeV.346706.PhPy8EG_Hto4l_NNPDF30_AZNLO_WmH125J_Wincl_MINLO.recon.AOD.e7840_s3681_r13144
mc20_13TeV.346706.PhPy8EG_Hto4l_NNPDF30_AZNLO_WmH125J_Wincl_MINLO.recon.AOD.e7840_s3681_r13145
mc20_13TeV.346706.PhPy8EG_Hto4l_NNPDF30_AZNLO_WmH125J_Wincl_MINLO.recon.AOD.e7840_s3681_r13167
mc20_13TeV.346759.aMcAtNloPythia8EvtGen_tWH125_CPalpha_0_gamgam.recon.AOD.e7816_s3681_r13144
mc20_13TeV.346759.aMcAtNloPythia8EvtGen_tWH125_CPalpha_0_gamgam.recon.AOD.e7816_s3681_r13145
mc20_13TeV.346759.aMcAtNloPythia8EvtGen_tWH125_CPalpha_0_gamgam.recon.AOD.e7816_s3681_r13167
mc20_13TeV.346909.PowhegPy8EG_NNPDF30_AZNLO_WmH125J_Winc_MINLO_tautau_unpol.recon.AOD.e8291_s3681_r13144
mc20_13TeV.346909.PowhegPy8EG_NNPDF30_AZNLO_WmH125J_Winc_MINLO_tautau_unpol.recon.AOD.e8291_s3681_r13145
mc20_13TeV.346909.PowhegPy8EG_NNPDF30_AZNLO_WmH125J_Winc_MINLO_tautau_unpol.recon.AOD.e8291_s3681_r13167
mc20_13TeV.346912.PowhegPy8EG_NNPDF30_AZNLO_WpH125J_Winc_MINLO_tautau_unpol.recon.AOD.e8291_s3681_r13144
mc20_13TeV.346912.PowhegPy8EG_NNPDF30_AZNLO_WpH125J_Winc_MINLO_tautau_unpol.recon.AOD.e8291_s3681_r13145
mc20_13TeV.346912.PowhegPy8EG_NNPDF30_AZNLO_WpH125J_Winc_MINLO_tautau_unpol.recon.AOD.e8291_s3681_r13167
mc20_13TeV.346915.PowhegPy8EG_NNPDF30_AZNLO_ZH125J_Zinc_MINLO_tautau_unpol.recon.AOD.e8291_s3681_r13144
mc20_13TeV.346915.PowhegPy8EG_NNPDF30_AZNLO_ZH125J_Zinc_MINLO_tautau_unpol.recon.AOD.e8291_s3681_r13145
mc20_13TeV.346915.PowhegPy8EG_NNPDF30_AZNLO_ZH125J_Zinc_MINLO_tautau_unpol.recon.AOD.e8291_s3681_r13167
mc20_13TeV.346919.PhPy8EG_A14NNPDF23_NNPDF30ME_ttH125_allhad_tautau_unpol.recon.AOD.e8291_s3681_r13144
mc20_13TeV.346919.PhPy8EG_A14NNPDF23_NNPDF30ME_ttH125_allhad_tautau_unpol.recon.AOD.e8291_s3681_r13145
mc20_13TeV.346919.PhPy8EG_A14NNPDF23_NNPDF30ME_ttH125_allhad_tautau_unpol.recon.AOD.e8291_s3681_r13167
mc20_13TeV.346923.PhPy8EG_A14NNPDF23_NNPDF30ME_ttH125_semilep_tautau_unpol.recon.AOD.e8291_s3681_r13144
mc20_13TeV.346923.PhPy8EG_A14NNPDF23_NNPDF30ME_ttH125_semilep_tautau_unpol.recon.AOD.e8291_s3681_r13145
mc20_13TeV.346923.PhPy8EG_A14NNPDF23_NNPDF30ME_ttH125_semilep_tautau_unpol.recon.AOD.e8291_s3681_r13167
mc20_13TeV.346927.PhPy8EG_A14NNPDF23_NNPDF30ME_ttH125_dilep_tautau_unpol.recon.AOD.e8291_s3681_r13144
mc20_13TeV.346927.PhPy8EG_A14NNPDF23_NNPDF30ME_ttH125_dilep_tautau_unpol.recon.AOD.e8291_s3681_r13145
mc20_13TeV.346927.PhPy8EG_A14NNPDF23_NNPDF30ME_ttH125_dilep_tautau_unpol.recon.AOD.e8291_s3681_r13167
mc20_13TeV.361100.PowhegPythia8EvtGen_AZNLOCTEQ6L1_Wplusenu.recon.AOD.e3601_s3681_r13167
mc20_13TeV.361100.PowhegPythia8EvtGen_AZNLOCTEQ6L1_Wplusenu.recon.AOD.e3601_s3681_r13144
mc20_13TeV.361100.PowhegPythia8EvtGen_AZNLOCTEQ6L1_Wplusenu.recon.AOD.e3601_s3681_r13145
mc20_13TeV.361101.PowhegPythia8EvtGen_AZNLOCTEQ6L1_Wplusmunu.recon.AOD.e3601_s3681_r13167
mc20_13TeV.361101.PowhegPythia8EvtGen_AZNLOCTEQ6L1_Wplusmunu.recon.AOD.e3601_s3681_r13144
mc20_13TeV.361101.PowhegPythia8EvtGen_AZNLOCTEQ6L1_Wplusmunu.recon.AOD.e3601_s3681_r13145
mc20_13TeV.361102.PowhegPythia8EvtGen_AZNLOCTEQ6L1_Wplustaunu.recon.AOD.e3601_s3681_r13167
mc20_13TeV.361102.PowhegPythia8EvtGen_AZNLOCTEQ6L1_Wplustaunu.recon.AOD.e3601_s3681_r13144
mc20_13TeV.361102.PowhegPythia8EvtGen_AZNLOCTEQ6L1_Wplustaunu.recon.AOD.e3601_s3681_r13145
mc20_13TeV.361103.PowhegPythia8EvtGen_AZNLOCTEQ6L1_Wminusenu.recon.AOD.e3601_s3681_r13167
mc20_13TeV.361103.PowhegPythia8EvtGen_AZNLOCTEQ6L1_Wminusenu.recon.AOD.e3601_s3681_r13144
mc20_13TeV.361103.PowhegPythia8EvtGen_AZNLOCTEQ6L1_Wminusenu.recon.AOD.e3601_s3681_r13145
mc20_13TeV.361104.PowhegPythia8EvtGen_AZNLOCTEQ6L1_Wminusmunu.recon.AOD.e3601_s3681_r13167
mc20_13TeV.361104.PowhegPythia8EvtGen_AZNLOCTEQ6L1_Wminusmunu.recon.AOD.e3601_s3681_r13144
mc20_13TeV.361104.PowhegPythia8EvtGen_AZNLOCTEQ6L1_Wminusmunu.recon.AOD.e3601_s3681_r13145
mc20_13TeV.361105.PowhegPythia8EvtGen_AZNLOCTEQ6L1_Wminustaunu.recon.AOD.e3601_s3681_r13167
mc20_13TeV.361105.PowhegPythia8EvtGen_AZNLOCTEQ6L1_Wminustaunu.recon.AOD.e3601_s3681_r13144
mc20_13TeV.361105.PowhegPythia8EvtGen_AZNLOCTEQ6L1_Wminustaunu.recon.AOD.e3601_s3681_r13145
mc20_13TeV.361106.PowhegPythia8EvtGen_AZNLOCTEQ6L1_Zee.recon.AOD.e3601_s3681_r13167
mc20_13TeV.361106.PowhegPythia8EvtGen_AZNLOCTEQ6L1_Zee.recon.AOD.e3601_s3681_r13144
mc20_13TeV.361106.PowhegPythia8EvtGen_AZNLOCTEQ6L1_Zee.recon.AOD.e3601_s3681_r13145
mc20_13TeV.361107.PowhegPythia8EvtGen_AZNLOCTEQ6L1_Zmumu.recon.AOD.e3601_s3681_r13167
mc20_13TeV.361107.PowhegPythia8EvtGen_AZNLOCTEQ6L1_Zmumu.recon.AOD.e3601_s3681_r13144
mc20_13TeV.361107.PowhegPythia8EvtGen_AZNLOCTEQ6L1_Zmumu.recon.AOD.e3601_s3681_r13145
mc20_13TeV.361108.PowhegPythia8EvtGen_AZNLOCTEQ6L1_Ztautau.recon.AOD.e3601_s3681_r13167
mc20_13TeV.361108.PowhegPythia8EvtGen_AZNLOCTEQ6L1_Ztautau.recon.AOD.e3601_s3681_r13144
mc20_13TeV.361108.PowhegPythia8EvtGen_AZNLOCTEQ6L1_Ztautau.recon.AOD.e3601_s3681_r13145
mc20_13TeV.364242.Sherpa_222_NNPDF30NNLO_WWW_3l3v_EW6.recon.AOD.e5887_s3681_r13144
mc20_13TeV.364242.Sherpa_222_NNPDF30NNLO_WWW_3l3v_EW6.recon.AOD.e5887_s3681_r13167
mc20_13TeV.364242.Sherpa_222_NNPDF30NNLO_WWW_3l3v_EW6.recon.AOD.e5887_s3681_r13145
mc20_13TeV.364243.Sherpa_222_NNPDF30NNLO_WWZ_4l2v_EW6.recon.AOD.e5887_s3681_r13144
mc20_13TeV.364243.Sherpa_222_NNPDF30NNLO_WWZ_4l2v_EW6.recon.AOD.e5887_s3681_r13167
mc20_13TeV.364243.Sherpa_222_NNPDF30NNLO_WWZ_4l2v_EW6.recon.AOD.e5887_s3681_r13145
mc20_13TeV.364244.Sherpa_222_NNPDF30NNLO_WWZ_2l4v_EW6.recon.AOD.e5887_s3681_r13144
mc20_13TeV.364244.Sherpa_222_NNPDF30NNLO_WWZ_2l4v_EW6.recon.AOD.e5887_s3681_r13167
mc20_13TeV.364244.Sherpa_222_NNPDF30NNLO_WWZ_2l4v_EW6.recon.AOD.e5887_s3681_r13145
mc20_13TeV.364245.Sherpa_222_NNPDF30NNLO_WZZ_5l1v_EW6.recon.AOD.e5887_s3681_r13144
mc20_13TeV.364245.Sherpa_222_NNPDF30NNLO_WZZ_5l1v_EW6.recon.AOD.e5887_s3681_r13167
mc20_13TeV.364245.Sherpa_222_NNPDF30NNLO_WZZ_5l1v_EW6.recon.AOD.e5887_s3681_r13145
mc20_13TeV.364246.Sherpa_222_NNPDF30NNLO_WZZ_3l3v_EW6.recon.AOD.e5887_s3681_r13144
mc20_13TeV.364246.Sherpa_222_NNPDF30NNLO_WZZ_3l3v_EW6.recon.AOD.e5887_s3681_r13167
mc20_13TeV.364246.Sherpa_222_NNPDF30NNLO_WZZ_3l3v_EW6.recon.AOD.e5887_s3681_r13145
mc20_13TeV.364247.Sherpa_222_NNPDF30NNLO_ZZZ_6l0v_EW6.recon.AOD.e5887_s3681_r13144
mc20_13TeV.364247.Sherpa_222_NNPDF30NNLO_ZZZ_6l0v_EW6.recon.AOD.e5887_s3681_r13167
mc20_13TeV.364247.Sherpa_222_NNPDF30NNLO_ZZZ_6l0v_EW6.recon.AOD.e5887_s3681_r13145
mc20_13TeV.364248.Sherpa_222_NNPDF30NNLO_ZZZ_4l2v_EW6.recon.AOD.e5887_s3681_r13144
mc20_13TeV.364248.Sherpa_222_NNPDF30NNLO_ZZZ_4l2v_EW6.recon.AOD.e5887_s3681_r13167
mc20_13TeV.364248.Sherpa_222_NNPDF30NNLO_ZZZ_4l2v_EW6.recon.AOD.e5887_s3681_r13145
mc20_13TeV.364249.Sherpa_222_NNPDF30NNLO_ZZZ_2l4v_EW6.recon.AOD.e5887_s3681_r13144
mc20_13TeV.364249.Sherpa_222_NNPDF30NNLO_ZZZ_2l4v_EW6.recon.AOD.e5887_s3681_r13167
mc20_13TeV.364249.Sherpa_222_NNPDF30NNLO_ZZZ_2l4v_EW6.recon.AOD.e5887_s3681_r13145
mc20_13TeV.364288.Sherpa_222_NNPDF30NNLO_llll_lowMllPtComplement.recon.AOD.e6096_s3681_r13144
mc20_13TeV.364288.Sherpa_222_NNPDF30NNLO_llll_lowMllPtComplement.recon.AOD.e6096_s3681_r13167
mc20_13TeV.364288.Sherpa_222_NNPDF30NNLO_llll_lowMllPtComplement.recon.AOD.e6096_s3681_r13145
mc20_13TeV.364289.Sherpa_222_NNPDF30NNLO_lllv_lowMllPtComplement.recon.AOD.e6133_s3681_r13144
mc20_13TeV.364289.Sherpa_222_NNPDF30NNLO_lllv_lowMllPtComplement.recon.AOD.e6133_s3681_r13167
mc20_13TeV.364289.Sherpa_222_NNPDF30NNLO_lllv_lowMllPtComplement.recon.AOD.e6133_s3681_r13145
mc20_13TeV.364290.Sherpa_222_NNPDF30NNLO_llvv_lowMllPtComplement.recon.AOD.e6096_s3681_r13144
mc20_13TeV.364290.Sherpa_222_NNPDF30NNLO_llvv_lowMllPtComplement.recon.AOD.e6096_s3681_r13167
mc20_13TeV.364290.Sherpa_222_NNPDF30NNLO_llvv_lowMllPtComplement.recon.AOD.e6096_s3681_r13145
mc20_13TeV.364302.Sherpa_222_NNPDF30NNLO_ggZllZqq.recon.AOD.e6273_s3681_r13144
mc20_13TeV.364302.Sherpa_222_NNPDF30NNLO_ggZllZqq.recon.AOD.e6273_s3681_r13145
mc20_13TeV.364302.Sherpa_222_NNPDF30NNLO_ggZllZqq.recon.AOD.e6273_s3681_r13167
mc20_13TeV.364303.Sherpa_222_NNPDF30NNLO_ggZvvZqq.recon.AOD.e6273_s3681_r13144
mc20_13TeV.364303.Sherpa_222_NNPDF30NNLO_ggZvvZqq.recon.AOD.e6273_s3681_r13145
mc20_13TeV.364303.Sherpa_222_NNPDF30NNLO_ggZvvZqq.recon.AOD.e6273_s3681_r13167
mc20_13TeV.364304.Sherpa_222_NNPDF30NNLO_ggWmlvWpqq.recon.AOD.e6273_s3681_r13144
mc20_13TeV.364304.Sherpa_222_NNPDF30NNLO_ggWmlvWpqq.recon.AOD.e6273_s3681_r13145
mc20_13TeV.364304.Sherpa_222_NNPDF30NNLO_ggWmlvWpqq.recon.AOD.e6273_s3681_r13167
mc20_13TeV.364305.Sherpa_222_NNPDF30NNLO_ggWplvWmqq.recon.AOD.e6273_s3681_r13144
mc20_13TeV.364305.Sherpa_222_NNPDF30NNLO_ggWplvWmqq.recon.AOD.e6273_s3681_r13145
mc20_13TeV.364305.Sherpa_222_NNPDF30NNLO_ggWplvWmqq.recon.AOD.e6273_s3681_r13167
mc20_13TeV.364336.Sherpa_222_NNPDF30NNLO_WpWpWn_sslvlvjj_EW6.recon.AOD.e6377_s3681_r13144
mc20_13TeV.364336.Sherpa_222_NNPDF30NNLO_WpWpWn_sslvlvjj_EW6.recon.AOD.e6377_s3681_r13145
mc20_13TeV.364336.Sherpa_222_NNPDF30NNLO_WpWpWn_sslvlvjj_EW6.recon.AOD.e6377_s3681_r13167
mc20_13TeV.364337.Sherpa_222_NNPDF30NNLO_WnWnWp_sslvlvjj_EW6.recon.AOD.e6377_s3681_r13144
mc20_13TeV.364337.Sherpa_222_NNPDF30NNLO_WnWnWp_sslvlvjj_EW6.recon.AOD.e6377_s3681_r13145
mc20_13TeV.364337.Sherpa_222_NNPDF30NNLO_WnWnWp_sslvlvjj_EW6.recon.AOD.e6377_s3681_r13167
mc20_13TeV.364338.Sherpa_222_NNPDF30NNLO_WpWpWn_oslvlvjj_EW6.recon.AOD.e6377_s3681_r13144
mc20_13TeV.364338.Sherpa_222_NNPDF30NNLO_WpWpWn_oslvlvjj_EW6.recon.AOD.e6377_s3681_r13145
mc20_13TeV.364338.Sherpa_222_NNPDF30NNLO_WpWpWn_oslvlvjj_EW6.recon.AOD.e6377_s3681_r13167
mc20_13TeV.364339.Sherpa_222_NNPDF30NNLO_WnWnWp_oslvlvjj_EW6.recon.AOD.e6377_s3681_r13144
mc20_13TeV.364339.Sherpa_222_NNPDF30NNLO_WnWnWp_oslvlvjj_EW6.recon.AOD.e6377_s3681_r13145
mc20_13TeV.364339.Sherpa_222_NNPDF30NNLO_WnWnWp_oslvlvjj_EW6.recon.AOD.e6377_s3681_r13167
mc20_13TeV.364350.Sherpa_224_NNPDF30NNLO_Diphoton_myy_0_50.recon.AOD.e7081_s3681_r13144
mc20_13TeV.364350.Sherpa_224_NNPDF30NNLO_Diphoton_myy_0_50.recon.AOD.e7081_s3681_r13145
mc20_13TeV.364350.Sherpa_224_NNPDF30NNLO_Diphoton_myy_0_50.recon.AOD.e7081_s3681_r13167
mc20_13TeV.364351.Sherpa_224_NNPDF30NNLO_Diphoton_myy_50_90.recon.AOD.e6452_s3681_r13144
mc20_13TeV.364351.Sherpa_224_NNPDF30NNLO_Diphoton_myy_50_90.recon.AOD.e6452_s3681_r13145
mc20_13TeV.364351.Sherpa_224_NNPDF30NNLO_Diphoton_myy_50_90.recon.AOD.e6452_s3681_r13167
mc20_13TeV.364352.Sherpa_224_NNPDF30NNLO_Diphoton_myy_90_175.recon.AOD.e6452_s3681_r13144
mc20_13TeV.364352.Sherpa_224_NNPDF30NNLO_Diphoton_myy_90_175.recon.AOD.e6452_s3681_r13145
mc20_13TeV.364352.Sherpa_224_NNPDF30NNLO_Diphoton_myy_90_175.recon.AOD.e6452_s3681_r13167
mc20_13TeV.364353.Sherpa_224_NNPDF30NNLO_Diphoton_myy_175_2000.recon.AOD.e7081_s3681_r13144
mc20_13TeV.364353.Sherpa_224_NNPDF30NNLO_Diphoton_myy_175_2000.recon.AOD.e7081_s3681_r13145
mc20_13TeV.364353.Sherpa_224_NNPDF30NNLO_Diphoton_myy_175_2000.recon.AOD.e7081_s3681_r13167
mc20_13TeV.364354.Sherpa_224_NNPDF30NNLO_Diphoton_myy_2000_E_CMS.recon.AOD.e7081_s3681_r13144
mc20_13TeV.364354.Sherpa_224_NNPDF30NNLO_Diphoton_myy_2000_E_CMS.recon.AOD.e7081_s3681_r13145
mc20_13TeV.364354.Sherpa_224_NNPDF30NNLO_Diphoton_myy_2000_E_CMS.recon.AOD.e7081_s3681_r13167
mc20_13TeV.364541.Sherpa_222_NNPDF30NNLO_SinglePhoton_pty_17_35.recon.AOD.e6788_s3681_r13144
mc20_13TeV.364541.Sherpa_222_NNPDF30NNLO_SinglePhoton_pty_17_35.recon.AOD.e6788_s3681_r13167
mc20_13TeV.364541.Sherpa_222_NNPDF30NNLO_SinglePhoton_pty_17_35.recon.AOD.e6788_s3681_r13145
mc20_13TeV.364542.Sherpa_222_NNPDF30NNLO_SinglePhoton_pty_35_70.recon.AOD.e6788_s3681_r13144
mc20_13TeV.364542.Sherpa_222_NNPDF30NNLO_SinglePhoton_pty_35_70.recon.AOD.e6788_s3681_r13167
mc20_13TeV.364542.Sherpa_222_NNPDF30NNLO_SinglePhoton_pty_35_70.recon.AOD.e6788_s3681_r13145
mc20_13TeV.364543.Sherpa_222_NNPDF30NNLO_SinglePhoton_pty_70_140.recon.AOD.e5938_s3681_r13144
mc20_13TeV.364543.Sherpa_222_NNPDF30NNLO_SinglePhoton_pty_70_140.recon.AOD.e5938_s3681_r13167
mc20_13TeV.364543.Sherpa_222_NNPDF30NNLO_SinglePhoton_pty_70_140.recon.AOD.e5938_s3681_r13145
mc20_13TeV.364544.Sherpa_222_NNPDF30NNLO_SinglePhoton_pty_140_280.recon.AOD.e5938_s3681_r13144
mc20_13TeV.364544.Sherpa_222_NNPDF30NNLO_SinglePhoton_pty_140_280.recon.AOD.e5938_s3681_r13167
mc20_13TeV.364544.Sherpa_222_NNPDF30NNLO_SinglePhoton_pty_140_280.recon.AOD.e5938_s3681_r13145
mc20_13TeV.364545.Sherpa_222_NNPDF30NNLO_SinglePhoton_pty_280_500.recon.AOD.e5938_s3681_r13144
mc20_13TeV.364545.Sherpa_222_NNPDF30NNLO_SinglePhoton_pty_280_500.recon.AOD.e5938_s3681_r13167
mc20_13TeV.364545.Sherpa_222_NNPDF30NNLO_SinglePhoton_pty_280_500.recon.AOD.e5938_s3681_r13145
mc20_13TeV.364546.Sherpa_222_NNPDF30NNLO_SinglePhoton_pty_500_1000.recon.AOD.e5938_s3681_r13144
mc20_13TeV.364546.Sherpa_222_NNPDF30NNLO_SinglePhoton_pty_500_1000.recon.AOD.e5938_s3681_r13167
mc20_13TeV.364546.Sherpa_222_NNPDF30NNLO_SinglePhoton_pty_500_1000.recon.AOD.e5938_s3681_r13145
mc20_13TeV.364547.Sherpa_222_NNPDF30NNLO_SinglePhoton_pty_1000_E_CMS.recon.AOD.e6068_s3681_r13144
mc20_13TeV.364547.Sherpa_222_NNPDF30NNLO_SinglePhoton_pty_1000_E_CMS.recon.AOD.e6068_s3681_r13167
mc20_13TeV.364547.Sherpa_222_NNPDF30NNLO_SinglePhoton_pty_1000_E_CMS.recon.AOD.e6068_s3681_r13145
mc20_13TeV.364700.Pythia8EvtGen_A14NNPDF23LO_jetjet_JZ0WithSW.recon.AOD.e7142_s3681_r13144
mc20_13TeV.364700.Pythia8EvtGen_A14NNPDF23LO_jetjet_JZ0WithSW.recon.AOD.e7142_s3681_r13145
mc20_13TeV.364700.Pythia8EvtGen_A14NNPDF23LO_jetjet_JZ0WithSW.recon.AOD.e7142_s3681_r13167
mc20_13TeV.364701.Pythia8EvtGen_A14NNPDF23LO_jetjet_JZ1WithSW.recon.AOD.e7142_s3681_r13144
mc20_13TeV.364701.Pythia8EvtGen_A14NNPDF23LO_jetjet_JZ1WithSW.recon.AOD.e7142_s3681_r13145
mc20_13TeV.364701.Pythia8EvtGen_A14NNPDF23LO_jetjet_JZ1WithSW.recon.AOD.e7142_s3681_r13167
mc20_13TeV.364702.Pythia8EvtGen_A14NNPDF23LO_jetjet_JZ2WithSW.recon.AOD.e7142_s3681_r13144
mc20_13TeV.364702.Pythia8EvtGen_A14NNPDF23LO_jetjet_JZ2WithSW.recon.AOD.e7142_s3681_r13145
mc20_13TeV.364702.Pythia8EvtGen_A14NNPDF23LO_jetjet_JZ2WithSW.recon.AOD.e7142_s3681_r13167
mc20_13TeV.364703.Pythia8EvtGen_A14NNPDF23LO_jetjet_JZ3WithSW.recon.AOD.e7142_s3681_r13144
mc20_13TeV.364703.Pythia8EvtGen_A14NNPDF23LO_jetjet_JZ3WithSW.recon.AOD.e7142_s3681_r13145
mc20_13TeV.364703.Pythia8EvtGen_A14NNPDF23LO_jetjet_JZ3WithSW.recon.AOD.e7142_s3681_r13167
mc20_13TeV.364704.Pythia8EvtGen_A14NNPDF23LO_jetjet_JZ4WithSW.recon.AOD.e7142_s3681_r13144
mc20_13TeV.364704.Pythia8EvtGen_A14NNPDF23LO_jetjet_JZ4WithSW.recon.AOD.e7142_s3681_r13145
mc20_13TeV.364704.Pythia8EvtGen_A14NNPDF23LO_jetjet_JZ4WithSW.recon.AOD.e7142_s3681_r13167
mc20_13TeV.364705.Pythia8EvtGen_A14NNPDF23LO_jetjet_JZ5WithSW.recon.AOD.e7142_s3681_r13144
mc20_13TeV.364705.Pythia8EvtGen_A14NNPDF23LO_jetjet_JZ5WithSW.recon.AOD.e7142_s3681_r13145
mc20_13TeV.364705.Pythia8EvtGen_A14NNPDF23LO_jetjet_JZ5WithSW.recon.AOD.e7142_s3681_r13167
mc20_13TeV.364706.Pythia8EvtGen_A14NNPDF23LO_jetjet_JZ6WithSW.recon.AOD.e7142_s3681_r13144
mc20_13TeV.364706.Pythia8EvtGen_A14NNPDF23LO_jetjet_JZ6WithSW.recon.AOD.e7142_s3681_r13145
mc20_13TeV.364706.Pythia8EvtGen_A14NNPDF23LO_jetjet_JZ6WithSW.recon.AOD.e7142_s3681_r13167
mc20_13TeV.364707.Pythia8EvtGen_A14NNPDF23LO_jetjet_JZ7WithSW.recon.AOD.e7142_s3681_r13144
mc20_13TeV.364707.Pythia8EvtGen_A14NNPDF23LO_jetjet_JZ7WithSW.recon.AOD.e7142_s3681_r13145
mc20_13TeV.364707.Pythia8EvtGen_A14NNPDF23LO_jetjet_JZ7WithSW.recon.AOD.e7142_s3681_r13167
mc20_13TeV.364708.Pythia8EvtGen_A14NNPDF23LO_jetjet_JZ8WithSW.recon.AOD.e7142_s3681_r13144
mc20_13TeV.364708.Pythia8EvtGen_A14NNPDF23LO_jetjet_JZ8WithSW.recon.AOD.e7142_s3681_r13145
mc20_13TeV.364708.Pythia8EvtGen_A14NNPDF23LO_jetjet_JZ8WithSW.recon.AOD.e7142_s3681_r13167
mc20_13TeV.364709.Pythia8EvtGen_A14NNPDF23LO_jetjet_JZ9WithSW.recon.AOD.e7142_s3681_r13144
mc20_13TeV.364709.Pythia8EvtGen_A14NNPDF23LO_jetjet_JZ9WithSW.recon.AOD.e7142_s3681_r13145
mc20_13TeV.364709.Pythia8EvtGen_A14NNPDF23LO_jetjet_JZ9WithSW.recon.AOD.e7142_s3681_r13167
mc20_13TeV.364710.Pythia8EvtGen_A14NNPDF23LO_jetjet_JZ10WithSW.recon.AOD.e7142_s3681_r13144
mc20_13TeV.364710.Pythia8EvtGen_A14NNPDF23LO_jetjet_JZ10WithSW.recon.AOD.e7142_s3681_r13145
mc20_13TeV.364710.Pythia8EvtGen_A14NNPDF23LO_jetjet_JZ10WithSW.recon.AOD.e7142_s3681_r13167
mc20_13TeV.364711.Pythia8EvtGen_A14NNPDF23LO_jetjet_JZ11WithSW.recon.AOD.e7142_s3681_r13144
mc20_13TeV.364711.Pythia8EvtGen_A14NNPDF23LO_jetjet_JZ11WithSW.recon.AOD.e7142_s3681_r13145
mc20_13TeV.364711.Pythia8EvtGen_A14NNPDF23LO_jetjet_JZ11WithSW.recon.AOD.e7142_s3681_r13167
mc20_13TeV.364712.Pythia8EvtGen_A14NNPDF23LO_jetjet_JZ12WithSW.recon.AOD.e7142_s3681_r13144
mc20_13TeV.364712.Pythia8EvtGen_A14NNPDF23LO_jetjet_JZ12WithSW.recon.AOD.e7142_s3681_r13145
mc20_13TeV.364712.Pythia8EvtGen_A14NNPDF23LO_jetjet_JZ12WithSW.recon.AOD.e7142_s3681_r13167
mc20_13TeV.407342.PhPy8EG_A14_ttbarHT1k5_hdamp258p75_nonallhad.recon.AOD.e6414_s3681_r13144
mc20_13TeV.407342.PhPy8EG_A14_ttbarHT1k5_hdamp258p75_nonallhad.recon.AOD.e6414_s3681_r13167
mc20_13TeV.407342.PhPy8EG_A14_ttbarHT1k5_hdamp258p75_nonallhad.recon.AOD.e6414_s3681_r13145
mc20_13TeV.407343.PhPy8EG_A14_ttbarHT1k_1k5_hdamp258p75_nonallhad.recon.AOD.e6414_s3681_r13144
mc20_13TeV.407343.PhPy8EG_A14_ttbarHT1k_1k5_hdamp258p75_nonallhad.recon.AOD.e6414_s3681_r13167
mc20_13TeV.407343.PhPy8EG_A14_ttbarHT1k_1k5_hdamp258p75_nonallhad.recon.AOD.e6414_s3681_r13145
mc20_13TeV.407344.PhPy8EG_A14_ttbarHT6c_1k_hdamp258p75_nonallhad.recon.AOD.e6414_s3681_r13144
mc20_13TeV.407344.PhPy8EG_A14_ttbarHT6c_1k_hdamp258p75_nonallhad.recon.AOD.e6414_s3681_r13167
mc20_13TeV.407344.PhPy8EG_A14_ttbarHT6c_1k_hdamp258p75_nonallhad.recon.AOD.e6414_s3681_r13145
mc20_13TeV.407345.PhPy8EG_A14_ttbarMET200_300_hdamp258p75_nonallhad.recon.AOD.e6414_s3681_r13144
mc20_13TeV.407345.PhPy8EG_A14_ttbarMET200_300_hdamp258p75_nonallhad.recon.AOD.e6414_s3681_r13145
mc20_13TeV.407345.PhPy8EG_A14_ttbarMET200_300_hdamp258p75_nonallhad.recon.AOD.e6414_s3681_r13167
mc20_13TeV.407346.PhPy8EG_A14_ttbarMET300_400_hdamp258p75_nonallhad.recon.AOD.e6414_s3681_r13144
mc20_13TeV.407346.PhPy8EG_A14_ttbarMET300_400_hdamp258p75_nonallhad.recon.AOD.e6414_s3681_r13145
mc20_13TeV.407346.PhPy8EG_A14_ttbarMET300_400_hdamp258p75_nonallhad.recon.AOD.e6414_s3681_r13167
mc20_13TeV.407347.PhPy8EG_A14_ttbarMET400_hdamp258p75_nonallhad.recon.AOD.e6414_s3681_r13144
mc20_13TeV.407347.PhPy8EG_A14_ttbarMET400_hdamp258p75_nonallhad.recon.AOD.e6414_s3681_r13145
mc20_13TeV.407347.PhPy8EG_A14_ttbarMET400_hdamp258p75_nonallhad.recon.AOD.e6414_s3681_r13167
mc20_13TeV.410081.MadGraphPythia8EvtGen_A14NNPDF23_ttbarWW.recon.AOD.e4111_s3681_r13144
mc20_13TeV.410081.MadGraphPythia8EvtGen_A14NNPDF23_ttbarWW.recon.AOD.e4111_s3681_r13167
mc20_13TeV.410081.MadGraphPythia8EvtGen_A14NNPDF23_ttbarWW.recon.AOD.e4111_s3681_r13145
mc20_13TeV.410082.MadGraphPythia8EvtGen_A14NNPDF23LO_ttgamma_noallhad.recon.AOD.e4404_s3681_r13167
mc20_13TeV.410087.MadGraphPythia8EvtGen_A14NNPDF23LO_ttgamma_allhad.recon.AOD.e4404_s3681_r13167
mc20_13TeV.410087.MadGraphPythia8EvtGen_A14NNPDF23LO_ttgamma_allhad.recon.AOD.e4404_s3681_r13145
mc20_13TeV.410142.Sherpa_NNPDF30NNLO_ttll_mll5.recon.AOD.e4686_s3681_r13167
mc20_13TeV.410143.Sherpa_NNPDF30NNLO_ttZnnqq.recon.AOD.e4686_s3681_r13167
mc20_13TeV.410276.aMcAtNloPythia8EvtGen_MEN30NLO_A14N23LO_ttee_mll_1_5.recon.AOD.e6087_s3681_r13144
mc20_13TeV.410276.aMcAtNloPythia8EvtGen_MEN30NLO_A14N23LO_ttee_mll_1_5.recon.AOD.e6087_s3681_r13167
mc20_13TeV.410276.aMcAtNloPythia8EvtGen_MEN30NLO_A14N23LO_ttee_mll_1_5.recon.AOD.e6087_s3681_r13145
mc20_13TeV.410277.aMcAtNloPythia8EvtGen_MEN30NLO_A14N23LO_ttmumu_mll_1_5.recon.AOD.e6087_s3681_r13144
mc20_13TeV.410277.aMcAtNloPythia8EvtGen_MEN30NLO_A14N23LO_ttmumu_mll_1_5.recon.AOD.e6087_s3681_r13167
mc20_13TeV.410277.aMcAtNloPythia8EvtGen_MEN30NLO_A14N23LO_ttmumu_mll_1_5.recon.AOD.e6087_s3681_r13145
mc20_13TeV.410278.aMcAtNloPythia8EvtGen_MEN30NLO_A14N23LO_tttautau_mll_1_5.recon.AOD.e6087_s3681_r13144
mc20_13TeV.410278.aMcAtNloPythia8EvtGen_MEN30NLO_A14N23LO_tttautau_mll_1_5.recon.AOD.e6087_s3681_r13167
mc20_13TeV.410278.aMcAtNloPythia8EvtGen_MEN30NLO_A14N23LO_tttautau_mll_1_5.recon.AOD.e6087_s3681_r13145
mc20_13TeV.410470.PhPy8EG_A14_ttbar_hdamp258p75_nonallhad.recon.AOD.e6337_s3681_r13144
mc20_13TeV.410470.PhPy8EG_A14_ttbar_hdamp258p75_nonallhad.recon.AOD.e6337_s3681_r13167
mc20_13TeV.410470.PhPy8EG_A14_ttbar_hdamp258p75_nonallhad.recon.AOD.e6337_s3681_r13145
mc20_13TeV.410471.PhPy8EG_A14_ttbar_hdamp258p75_allhad.recon.AOD.e6337_s3681_r13144
mc20_13TeV.410471.PhPy8EG_A14_ttbar_hdamp258p75_allhad.recon.AOD.e6337_s3681_r13145
mc20_13TeV.410472.PhPy8EG_A14_ttbar_hdamp258p75_dil.recon.AOD.e6348_s3681_r13144
mc20_13TeV.410472.PhPy8EG_A14_ttbar_hdamp258p75_dil.recon.AOD.e6348_s3681_r13167
mc20_13TeV.410472.PhPy8EG_A14_ttbar_hdamp258p75_dil.recon.AOD.e6348_s3681_r13145
mc20_13TeV.410644.PowhegPythia8EvtGen_A14_singletop_schan_lept_top.recon.AOD.e6527_s3681_r13144
mc20_13TeV.410644.PowhegPythia8EvtGen_A14_singletop_schan_lept_top.recon.AOD.e6527_s3681_r13167
mc20_13TeV.410644.PowhegPythia8EvtGen_A14_singletop_schan_lept_top.recon.AOD.e6527_s3681_r13145
mc20_13TeV.410645.PowhegPythia8EvtGen_A14_singletop_schan_lept_antitop.recon.AOD.e6527_s3681_r13144
mc20_13TeV.410645.PowhegPythia8EvtGen_A14_singletop_schan_lept_antitop.recon.AOD.e6527_s3681_r13167
mc20_13TeV.410645.PowhegPythia8EvtGen_A14_singletop_schan_lept_antitop.recon.AOD.e6527_s3681_r13145
mc20_13TeV.410658.PhPy8EG_A14_tchan_BW50_lept_top.recon.AOD.e6671_s3681_r13144
mc20_13TeV.410658.PhPy8EG_A14_tchan_BW50_lept_top.recon.AOD.e6671_s3681_r13167
mc20_13TeV.410658.PhPy8EG_A14_tchan_BW50_lept_top.recon.AOD.e6671_s3681_r13145
mc20_13TeV.410659.PhPy8EG_A14_tchan_BW50_lept_antitop.recon.AOD.e6671_s3681_r13144
mc20_13TeV.410659.PhPy8EG_A14_tchan_BW50_lept_antitop.recon.AOD.e6671_s3681_r13167
mc20_13TeV.410659.PhPy8EG_A14_tchan_BW50_lept_antitop.recon.AOD.e6671_s3681_r13145
mc20_13TeV.411073.PhPy8EG_A14_ttbar_hdamp258p75_ljets_BBFilt.recon.AOD.e6798_s3681_r13144
mc20_13TeV.411073.PhPy8EG_A14_ttbar_hdamp258p75_ljets_BBFilt.recon.AOD.e6798_s3681_r13145
mc20_13TeV.411073.PhPy8EG_A14_ttbar_hdamp258p75_ljets_BBFilt.recon.AOD.e6798_s3681_r13167
mc20_13TeV.411074.PhPy8EG_A14_ttbar_hdamp258p75_ljets_BFiltBBVeto.recon.AOD.e6798_s3681_r13144
mc20_13TeV.411074.PhPy8EG_A14_ttbar_hdamp258p75_ljets_BFiltBBVeto.recon.AOD.e6798_s3681_r13145
mc20_13TeV.411074.PhPy8EG_A14_ttbar_hdamp258p75_ljets_BFiltBBVeto.recon.AOD.e6798_s3681_r13167
mc20_13TeV.411075.PhPy8EG_A14_ttbar_hdamp258p75_ljets_CFiltBVeto.recon.AOD.e6798_s3681_r13144
mc20_13TeV.411075.PhPy8EG_A14_ttbar_hdamp258p75_ljets_CFiltBVeto.recon.AOD.e6798_s3681_r13145
mc20_13TeV.411075.PhPy8EG_A14_ttbar_hdamp258p75_ljets_CFiltBVeto.recon.AOD.e6798_s3681_r13167
mc20_13TeV.411076.PhPy8EG_A14_ttbar_hdamp258p75_dil_BBFilt.recon.AOD.e6798_s3681_r13144
mc20_13TeV.411076.PhPy8EG_A14_ttbar_hdamp258p75_dil_BBFilt.recon.AOD.e6798_s3681_r13145
mc20_13TeV.411076.PhPy8EG_A14_ttbar_hdamp258p75_dil_BBFilt.recon.AOD.e6798_s3681_r13167
mc20_13TeV.411077.PhPy8EG_A14_ttbar_hdamp258p75_dil_BFiltBBVeto.recon.AOD.e6798_s3681_r13144
mc20_13TeV.411077.PhPy8EG_A14_ttbar_hdamp258p75_dil_BFiltBBVeto.recon.AOD.e6798_s3681_r13145
mc20_13TeV.411077.PhPy8EG_A14_ttbar_hdamp258p75_dil_BFiltBBVeto.recon.AOD.e6798_s3681_r13167
mc20_13TeV.411078.PhPy8EG_A14_ttbar_hdamp258p75_dil_CFiltBVeto.recon.AOD.e6798_s3681_r13144
mc20_13TeV.411078.PhPy8EG_A14_ttbar_hdamp258p75_dil_CFiltBVeto.recon.AOD.e6798_s3681_r13145
mc20_13TeV.411078.PhPy8EG_A14_ttbar_hdamp258p75_dil_CFiltBVeto.recon.AOD.e6798_s3681_r13167
mc20_13TeV.411081.PhPy8EG_A14_ttbar_hdamp258p75_allhad_CFiltBVeto.recon.AOD.e6798_s3797_r13144
mc20_13TeV.411081.PhPy8EG_A14_ttbar_hdamp258p75_allhad_CFiltBVeto.recon.AOD.e6798_s3797_r13145
mc20_13TeV.411391.PhPy8EG_A14_ttbarHT2k5_hdamp258p75_nonallhad.recon.AOD.e8220_s3681_r13144
mc20_13TeV.411391.PhPy8EG_A14_ttbarHT2k5_hdamp258p75_nonallhad.recon.AOD.e8220_s3681_r13145
mc20_13TeV.411391.PhPy8EG_A14_ttbarHT2k5_hdamp258p75_nonallhad.recon.AOD.e8220_s3681_r13167
mc20_13TeV.412043.aMcAtNloPythia8EvtGen_A14NNPDF31_SM4topsNLO.recon.AOD.e7101_s3681_r13167
mc20_13TeV.412044.aMcAtNloHerwig7EvtGen_H7UE_SM4topsNLO.recon.AOD.e7102_s3681_r13167
mc20_13TeV.413008.Sherpa_221_NN30NNLO_ttW_multilegNLO.recon.AOD.e7286_s3681_r13167
mc20_13TeV.500800.MGPy8EG_tty_yfromdec.recon.AOD.e8261_s3681_r13144
mc20_13TeV.500800.MGPy8EG_tty_yfromdec.recon.AOD.e8261_s3681_r13145
mc20_13TeV.500800.MGPy8EG_tty_yfromdec.recon.AOD.e8261_s3681_r13167
mc20_13TeV.504330.aMCPy8EG_NNPDF30NLO_A14N23LO_ttee.recon.AOD.e8255_s3681_r13145
mc20_13TeV.504330.aMCPy8EG_NNPDF30NLO_A14N23LO_ttee.recon.AOD.e8255_s3681_r13144
mc20_13TeV.504330.aMCPy8EG_NNPDF30NLO_A14N23LO_ttee.recon.AOD.e8255_s3681_r13167
mc20_13TeV.504334.aMCPy8EG_NNPDF30NLO_A14N23LO_ttmumu.recon.AOD.e8255_s3681_r13144
mc20_13TeV.504334.aMCPy8EG_NNPDF30NLO_A14N23LO_ttmumu.recon.AOD.e8255_s3681_r13167
mc20_13TeV.504334.aMCPy8EG_NNPDF30NLO_A14N23LO_ttmumu.recon.AOD.e8255_s3681_r13145
mc20_13TeV.504338.aMCPy8EG_NNPDF30NLO_A14N23LO_ttZqq.recon.AOD.e8255_s3681_r13144
mc20_13TeV.504338.aMCPy8EG_NNPDF30NLO_A14N23LO_ttZqq.recon.AOD.e8255_s3681_r13167
mc20_13TeV.504338.aMCPy8EG_NNPDF30NLO_A14N23LO_ttZqq.recon.AOD.e8255_s3681_r13144
mc20_13TeV.504346.aMCPy8EG_NNPDF30NLO_A14N23LO_ttZnunu.recon.AOD.e8255_s3681_r13144
mc20_13TeV.504346.aMCPy8EG_NNPDF30NLO_A14N23LO_ttZnunu.recon.AOD.e8255_s3681_r13167
mc20_13TeV.504346.aMCPy8EG_NNPDF30NLO_A14N23LO_ttZnunu.recon.AOD.e8255_s3681_r13145
mc20_13TeV.504554.aMCPy8EG_tty_yprod.recon.AOD.e8261_s3681_r13144
mc20_13TeV.504554.aMCPy8EG_tty_yprod.recon.AOD.e8261_s3681_r13145
mc20_13TeV.504554.aMCPy8EG_tty_yprod.recon.AOD.e8261_s3681_r13167
mc20_13TeV.508781.MGPy8EG_ttyy_nonallhad_LO.recon.AOD.e8448_s3681_r13144
mc20_13TeV.508781.MGPy8EG_ttyy_nonallhad_LO.recon.AOD.e8448_s3681_r13145
mc20_13TeV.508781.MGPy8EG_ttyy_nonallhad_LO.recon.AOD.e8448_s3681_r13167
mc20_13TeV.523588.aMCPy8_tqgammaSM_tchan_4fl_NLO.recon.AOD.e8536_s3681_r13167
mc20_13TeV.523588.aMCPy8_tqgammaSM_tchan_4fl_NLO.recon.AOD.e8536_s3681_r13144
mc20_13TeV.523588.aMCPy8_tqgammaSM_tchan_4fl_NLO.recon.AOD.e8536_s3681_r13145
mc20_13TeV.600931.PhPy8EG_A14NNPDF23_VBF_Wminusenu.recon.AOD.e8373_s3681_r13167
mc20_13TeV.600931.PhPy8EG_A14NNPDF23_VBF_Wminusenu.recon.AOD.e8373_s3681_r13144
mc20_13TeV.600931.PhPy8EG_A14NNPDF23_VBF_Wminusenu.recon.AOD.e8373_s3681_r13145
mc20_13TeV.600932.PhPy8EG_A14NNPDF23_VBF_Wminusmunu.recon.AOD.e8373_s3681_r13167
mc20_13TeV.600932.PhPy8EG_A14NNPDF23_VBF_Wminusmunu.recon.AOD.e8373_s3681_r13167
mc20_13TeV.600932.PhPy8EG_A14NNPDF23_VBF_Wminusmunu.recon.AOD.e8373_s3681_r13144
mc20_13TeV.600933.PhPy8EG_A14NNPDF23_VBF_Wminustaunu.recon.AOD.e8373_s3681_r13167
mc20_13TeV.600933.PhPy8EG_A14NNPDF23_VBF_Wminustaunu.recon.AOD.e8373_s3681_r13144
mc20_13TeV.600933.PhPy8EG_A14NNPDF23_VBF_Wminustaunu.recon.AOD.e8373_s3681_r13145
mc20_13TeV.600934.PhPy8EG_A14NNPDF23_VBF_Wplusenu.recon.AOD.e8373_s3681_r13167
mc20_13TeV.600934.PhPy8EG_A14NNPDF23_VBF_Wplusenu.recon.AOD.e8373_s3681_r13144
mc20_13TeV.600934.PhPy8EG_A14NNPDF23_VBF_Wplusenu.recon.AOD.e8373_s3681_r13145
mc20_13TeV.600935.PhPy8EG_A14NNPDF23_VBF_Wplusmunu.recon.AOD.e8373_s3681_r13167
mc20_13TeV.600935.PhPy8EG_A14NNPDF23_VBF_Wplusmunu.recon.AOD.e8373_s3681_r13144
mc20_13TeV.600935.PhPy8EG_A14NNPDF23_VBF_Wplusmunu.recon.AOD.e8373_s3681_r13145
mc20_13TeV.600936.PhPy8EG_A14NNPDF23_VBF_Wplustaunu.recon.AOD.e8373_s3681_r13167
mc20_13TeV.600936.PhPy8EG_A14NNPDF23_VBF_Wplustaunu.recon.AOD.e8373_s3681_r13144
mc20_13TeV.600936.PhPy8EG_A14NNPDF23_VBF_Wplustaunu.recon.AOD.e8373_s3681_r13145
mc20_13TeV.600937.PhPy8EG_A14NNPDF23_VBF_Zee.recon.AOD.e8373_s3681_r13167
mc20_13TeV.600938.PhPy8EG_A14NNPDF23_VBF_Zmumu.recon.AOD.e8373_s3681_r13167
mc20_13TeV.600938.PhPy8EG_A14NNPDF23_VBF_Zmumu.recon.AOD.e8373_s3681_r13144
mc20_13TeV.600938.PhPy8EG_A14NNPDF23_VBF_Zmumu.recon.AOD.e8373_s3681_r13145
mc20_13TeV.600939.PhPy8EG_A14NNPDF23_VBF_Ztautau.recon.AOD.e8373_s3681_r13167
mc20_13TeV.600939.PhPy8EG_A14NNPDF23_VBF_Ztautau.recon.AOD.e8373_s3681_r13144
mc20_13TeV.600939.PhPy8EG_A14NNPDF23_VBF_Ztautau.recon.AOD.e8373_s3681_r13145
mc20_13TeV.601352.PhPy8EG_tW_dyn_DR_incl_antitop.recon.AOD.e8547_s4231_r13167
mc20_13TeV.601352.PhPy8EG_tW_dyn_DR_incl_antitop.recon.AOD.e8547_s4231_r13144
mc20_13TeV.601352.PhPy8EG_tW_dyn_DR_incl_antitop.recon.AOD.e8547_s4231_r13145
mc20_13TeV.601353.PhPy8EG_tW_dyn_DR_dil_antitop.recon.AOD.e8547_s4231_r13167
mc20_13TeV.601353.PhPy8EG_tW_dyn_DR_dil_antitop.recon.AOD.e8547_s4231_r13144
mc20_13TeV.601353.PhPy8EG_tW_dyn_DR_dil_antitop.recon.AOD.e8547_s4231_r13145
mc20_13TeV.601354.PhPy8EG_tW_dyn_DR_dil_top.recon.AOD.e8547_s4231_r13167
mc20_13TeV.601354.PhPy8EG_tW_dyn_DR_dil_top.recon.AOD.e8547_s4231_r13144
mc20_13TeV.601354.PhPy8EG_tW_dyn_DR_dil_top.recon.AOD.e8547_s4231_r13145
mc20_13TeV.601355.PhPy8EG_tW_dyn_DR_incl_top.recon.AOD.e8547_s4231_r13167
mc20_13TeV.601355.PhPy8EG_tW_dyn_DR_incl_top.recon.AOD.e8547_s4231_r13144
mc20_13TeV.601355.PhPy8EG_tW_dyn_DR_incl_top.recon.AOD.e8547_s4231_r13145
mc20_13TeV.700007.Sh_228_yyy_01NLO.recon.AOD.e7999_s3681_r13144
mc20_13TeV.700007.Sh_228_yyy_01NLO.recon.AOD.e7999_s3681_r13145
mc20_13TeV.700007.Sh_228_yyy_01NLO.recon.AOD.e7999_s3681_r13167
mc20_13TeV.700121.Sh_2210_ttbar_AllHadronic_maxHTavrgTopPT_SSC.recon.AOD.e8253_s3681_r13144
mc20_13TeV.700121.Sh_2210_ttbar_AllHadronic_maxHTavrgTopPT_SSC.recon.AOD.e8253_s3681_r13145
mc20_13TeV.700121.Sh_2210_ttbar_AllHadronic_maxHTavrgTopPT_SSC.recon.AOD.e8253_s3681_r13167
mc20_13TeV.700122.Sh_2210_ttbar_SingleLeptonP_maxHTavrgTopPT_SSC.recon.AOD.e8253_s3681_r13144
mc20_13TeV.700122.Sh_2210_ttbar_SingleLeptonP_maxHTavrgTopPT_SSC.recon.AOD.e8253_s3681_r13145
mc20_13TeV.700122.Sh_2210_ttbar_SingleLeptonP_maxHTavrgTopPT_SSC.recon.AOD.e8253_s3681_r13167
mc20_13TeV.700123.Sh_2210_ttbar_SingleLeptonM_maxHTavrgTopPT_SSC.recon.AOD.e8253_s3681_r13144
mc20_13TeV.700123.Sh_2210_ttbar_SingleLeptonM_maxHTavrgTopPT_SSC.recon.AOD.e8253_s3681_r13145
mc20_13TeV.700123.Sh_2210_ttbar_SingleLeptonM_maxHTavrgTopPT_SSC.recon.AOD.e8253_s3681_r13167
mc20_13TeV.700124.Sh_2210_ttbar_dilepton_maxHTavrgTopPT_SSC.recon.AOD.e8253_s3681_r13144
mc20_13TeV.700124.Sh_2210_ttbar_dilepton_maxHTavrgTopPT_SSC.recon.AOD.e8253_s3681_r13145
mc20_13TeV.700124.Sh_2210_ttbar_dilepton_maxHTavrgTopPT_SSC.recon.AOD.e8253_s3681_r13167
mc20_13TeV.700320.Sh_2211_Zee_maxHTpTV2_BFilter.recon.AOD.e8351_s3681_r13144
mc20_13TeV.700320.Sh_2211_Zee_maxHTpTV2_BFilter.recon.AOD.e8351_s3681_r13167
mc20_13TeV.700320.Sh_2211_Zee_maxHTpTV2_BFilter.recon.AOD.e8351_s3681_r13145
mc20_13TeV.700321.Sh_2211_Zee_maxHTpTV2_CFilterBVeto.recon.AOD.e8351_s3681_r13144
mc20_13TeV.700321.Sh_2211_Zee_maxHTpTV2_CFilterBVeto.recon.AOD.e8351_s3681_r13167
mc20_13TeV.700321.Sh_2211_Zee_maxHTpTV2_CFilterBVeto.recon.AOD.e8351_s3681_r13145
mc20_13TeV.700322.Sh_2211_Zee_maxHTpTV2_CVetoBVeto.recon.AOD.e8351_s3681_r13144
mc20_13TeV.700322.Sh_2211_Zee_maxHTpTV2_CVetoBVeto.recon.AOD.e8351_s3681_r13167
mc20_13TeV.700322.Sh_2211_Zee_maxHTpTV2_CVetoBVeto.recon.AOD.e8351_s3681_r13145
mc20_13TeV.700323.Sh_2211_Zmumu_maxHTpTV2_BFilter.recon.AOD.e8351_s3681_r13144
mc20_13TeV.700323.Sh_2211_Zmumu_maxHTpTV2_BFilter.recon.AOD.e8351_s3681_r13167
mc20_13TeV.700323.Sh_2211_Zmumu_maxHTpTV2_BFilter.recon.AOD.e8351_s3681_r13145
mc20_13TeV.700324.Sh_2211_Zmumu_maxHTpTV2_CFilterBVeto.recon.AOD.e8351_s3681_r13144
mc20_13TeV.700324.Sh_2211_Zmumu_maxHTpTV2_CFilterBVeto.recon.AOD.e8351_s3681_r13167
mc20_13TeV.700324.Sh_2211_Zmumu_maxHTpTV2_CFilterBVeto.recon.AOD.e8351_s3681_r13145
mc20_13TeV.700325.Sh_2211_Zmumu_maxHTpTV2_CVetoBVeto.recon.AOD.e8351_s3681_r13144
mc20_13TeV.700325.Sh_2211_Zmumu_maxHTpTV2_CVetoBVeto.recon.AOD.e8351_s3681_r13167
mc20_13TeV.700325.Sh_2211_Zmumu_maxHTpTV2_CVetoBVeto.recon.AOD.e8351_s3681_r13145
mc20_13TeV.700335.Sh_2211_Znunu_pTV2_BFilter.recon.AOD.e8351_s3681_r13144
mc20_13TeV.700335.Sh_2211_Znunu_pTV2_BFilter.recon.AOD.e8351_s3681_r13167
mc20_13TeV.700335.Sh_2211_Znunu_pTV2_BFilter.recon.AOD.e8351_s3681_r13145
mc20_13TeV.700336.Sh_2211_Znunu_pTV2_CFilterBVeto.recon.AOD.e8351_s3681_r13144
mc20_13TeV.700336.Sh_2211_Znunu_pTV2_CFilterBVeto.recon.AOD.e8351_s3681_r13167
mc20_13TeV.700336.Sh_2211_Znunu_pTV2_CFilterBVeto.recon.AOD.e8351_s3681_r13145
mc20_13TeV.700337.Sh_2211_Znunu_pTV2_CVetoBVeto.recon.AOD.e8351_s3681_r13144
mc20_13TeV.700337.Sh_2211_Znunu_pTV2_CVetoBVeto.recon.AOD.e8351_s3681_r13167
mc20_13TeV.700337.Sh_2211_Znunu_pTV2_CVetoBVeto.recon.AOD.e8351_s3681_r13145
mc20_13TeV.700338.Sh_2211_Wenu_maxHTpTV2_BFilter.recon.AOD.e8351_s3681_r13144
mc20_13TeV.700338.Sh_2211_Wenu_maxHTpTV2_BFilter.recon.AOD.e8351_s3681_r13167
mc20_13TeV.700338.Sh_2211_Wenu_maxHTpTV2_BFilter.recon.AOD.e8351_s3681_r13145
mc20_13TeV.700339.Sh_2211_Wenu_maxHTpTV2_CFilterBVeto.recon.AOD.e8351_s3681_r13144
mc20_13TeV.700339.Sh_2211_Wenu_maxHTpTV2_CFilterBVeto.recon.AOD.e8351_s3681_r13167
mc20_13TeV.700339.Sh_2211_Wenu_maxHTpTV2_CFilterBVeto.recon.AOD.e8351_s3681_r13145
mc20_13TeV.700340.Sh_2211_Wenu_maxHTpTV2_CVetoBVeto.recon.AOD.e8351_s3681_r13144
mc20_13TeV.700340.Sh_2211_Wenu_maxHTpTV2_CVetoBVeto.recon.AOD.e8351_s3681_r13167
mc20_13TeV.700340.Sh_2211_Wenu_maxHTpTV2_CVetoBVeto.recon.AOD.e8351_s3681_r13145
mc20_13TeV.700341.Sh_2211_Wmunu_maxHTpTV2_BFilter.recon.AOD.e8351_s3681_r13144
mc20_13TeV.700341.Sh_2211_Wmunu_maxHTpTV2_BFilter.recon.AOD.e8351_s3681_r13167
mc20_13TeV.700341.Sh_2211_Wmunu_maxHTpTV2_BFilter.recon.AOD.e8351_s3681_r13145
mc20_13TeV.700342.Sh_2211_Wmunu_maxHTpTV2_CFilterBVeto.recon.AOD.e8351_s3681_r13144
mc20_13TeV.700342.Sh_2211_Wmunu_maxHTpTV2_CFilterBVeto.recon.AOD.e8351_s3681_r13167
mc20_13TeV.700342.Sh_2211_Wmunu_maxHTpTV2_CFilterBVeto.recon.AOD.e8351_s3681_r13145
mc20_13TeV.700343.Sh_2211_Wmunu_maxHTpTV2_CVetoBVeto.recon.AOD.e8351_s3681_r13144
mc20_13TeV.700343.Sh_2211_Wmunu_maxHTpTV2_CVetoBVeto.recon.AOD.e8351_s3681_r13167
mc20_13TeV.700343.Sh_2211_Wmunu_maxHTpTV2_CVetoBVeto.recon.AOD.e8351_s3681_r13145
mc20_13TeV.700344.Sh_2211_Wtaunu_L_maxHTpTV2_BFilter.recon.AOD.e8351_s3681_r13144
mc20_13TeV.700344.Sh_2211_Wtaunu_L_maxHTpTV2_BFilter.recon.AOD.e8351_s3681_r13167
mc20_13TeV.700344.Sh_2211_Wtaunu_L_maxHTpTV2_BFilter.recon.AOD.e8351_s3681_r13145
mc20_13TeV.700345.Sh_2211_Wtaunu_L_maxHTpTV2_CFilterBVeto.recon.AOD.e8351_s3681_r13144
mc20_13TeV.700345.Sh_2211_Wtaunu_L_maxHTpTV2_CFilterBVeto.recon.AOD.e8351_s3681_r13167
mc20_13TeV.700345.Sh_2211_Wtaunu_L_maxHTpTV2_CFilterBVeto.recon.AOD.e8351_s3681_r13145
mc20_13TeV.700346.Sh_2211_Wtaunu_L_maxHTpTV2_CVetoBVeto.recon.AOD.e8351_s3681_r13144
mc20_13TeV.700346.Sh_2211_Wtaunu_L_maxHTpTV2_CVetoBVeto.recon.AOD.e8351_s3681_r13167
mc20_13TeV.700346.Sh_2211_Wtaunu_L_maxHTpTV2_CVetoBVeto.recon.AOD.e8351_s3681_r13145
mc20_13TeV.700347.Sh_2211_Wtaunu_H_maxHTpTV2_BFilter.recon.AOD.e8351_s3681_r13144
mc20_13TeV.700347.Sh_2211_Wtaunu_H_maxHTpTV2_BFilter.recon.AOD.e8351_s3681_r13167
mc20_13TeV.700347.Sh_2211_Wtaunu_H_maxHTpTV2_BFilter.recon.AOD.e8351_s3681_r13145
mc20_13TeV.700348.Sh_2211_Wtaunu_H_maxHTpTV2_CFilterBVeto.recon.AOD.e8351_s3681_r13144
mc20_13TeV.700348.Sh_2211_Wtaunu_H_maxHTpTV2_CFilterBVeto.recon.AOD.e8351_s3681_r13167
mc20_13TeV.700348.Sh_2211_Wtaunu_H_maxHTpTV2_CFilterBVeto.recon.AOD.e8351_s3681_r13145
mc20_13TeV.700349.Sh_2211_Wtaunu_H_maxHTpTV2_CVetoBVeto.recon.AOD.e8351_s3681_r13144
mc20_13TeV.700349.Sh_2211_Wtaunu_H_maxHTpTV2_CVetoBVeto.recon.AOD.e8351_s3681_r13167
mc20_13TeV.700349.Sh_2211_Wtaunu_H_maxHTpTV2_CVetoBVeto.recon.AOD.e8351_s3681_r13145
mc20_13TeV.700352.Sh_2211_pTZ100_Zqqgamma.recon.AOD.e8312_s3681_r13167
mc20_13TeV.700352.Sh_2211_pTZ100_Zqqgamma.recon.AOD.e8312_s3681_r13144
mc20_13TeV.700352.Sh_2211_pTZ100_Zqqgamma.recon.AOD.e8312_s3681_r13145
mc20_13TeV.700353.Sh_2211_pTZ100_Zbbgamma.recon.AOD.e8312_s3681_r13167
mc20_13TeV.700353.Sh_2211_pTZ100_Zbbgamma.recon.AOD.e8312_s3681_r13144
mc20_13TeV.700353.Sh_2211_pTZ100_Zbbgamma.recon.AOD.e8312_s3681_r13145
mc20_13TeV.700358.Sh_2211_Zee2jets_Min_N_TChannel.recon.AOD.e8357_s3681_r13144
mc20_13TeV.700358.Sh_2211_Zee2jets_Min_N_TChannel.recon.AOD.e8357_s3681_r13167
mc20_13TeV.700358.Sh_2211_Zee2jets_Min_N_TChannel.recon.AOD.e8357_s3681_r13145
mc20_13TeV.700359.Sh_2211_Zmm2jets_Min_N_TChannel.recon.AOD.e8357_s3681_r13144
mc20_13TeV.700359.Sh_2211_Zmm2jets_Min_N_TChannel.recon.AOD.e8357_s3681_r13167
mc20_13TeV.700359.Sh_2211_Zmm2jets_Min_N_TChannel.recon.AOD.e8357_s3681_r13145
mc20_13TeV.700360.Sh_2211_Ztt2jets_Min_N_TChannel.recon.AOD.e8357_s3681_r13144
mc20_13TeV.700360.Sh_2211_Ztt2jets_Min_N_TChannel.recon.AOD.e8357_s3681_r13167
mc20_13TeV.700360.Sh_2211_Ztt2jets_Min_N_TChannel.recon.AOD.e8357_s3681_r13145
mc20_13TeV.700361.Sh_2211_Znunu2jets_Min_N_TChannel.recon.AOD.e8357_s3681_r13144
mc20_13TeV.700361.Sh_2211_Znunu2jets_Min_N_TChannel.recon.AOD.e8357_s3681_r13167
mc20_13TeV.700361.Sh_2211_Znunu2jets_Min_N_TChannel.recon.AOD.e8357_s3681_r13145
mc20_13TeV.700362.Sh_2211_Wenu2jets_Min_N_TChannel.recon.AOD.e8357_s3681_r13144
mc20_13TeV.700362.Sh_2211_Wenu2jets_Min_N_TChannel.recon.AOD.e8357_s3681_r13167
mc20_13TeV.700362.Sh_2211_Wenu2jets_Min_N_TChannel.recon.AOD.e8357_s3681_r13145
mc20_13TeV.700363.Sh_2211_Wmunu2jets_Min_N_TChannel.recon.AOD.e8357_s3681_r13144
mc20_13TeV.700363.Sh_2211_Wmunu2jets_Min_N_TChannel.recon.AOD.e8357_s3681_r13167
mc20_13TeV.700363.Sh_2211_Wmunu2jets_Min_N_TChannel.recon.AOD.e8357_s3681_r13145
mc20_13TeV.700364.Sh_2211_Wtaunu2jets_Min_N_TChannel.recon.AOD.e8357_s3681_r13144
mc20_13TeV.700364.Sh_2211_Wtaunu2jets_Min_N_TChannel.recon.AOD.e8357_s3681_r13167
mc20_13TeV.700364.Sh_2211_Wtaunu2jets_Min_N_TChannel.recon.AOD.e8357_s3681_r13145
mc20_13TeV.700398.Sh_2211_mumugamma.recon.AOD.e8338_s3681_r13167
mc20_13TeV.700398.Sh_2211_mumugamma.recon.AOD.e8338_s3681_r13144
mc20_13TeV.700398.Sh_2211_mumugamma.recon.AOD.e8338_s3681_r13145
mc20_13TeV.700399.Sh_2211_eegamma.recon.AOD.e8338_s3681_r13167
mc20_13TeV.700399.Sh_2211_eegamma.recon.AOD.e8338_s3681_r13144
mc20_13TeV.700399.Sh_2211_eegamma.recon.AOD.e8338_s3681_r13145
mc20_13TeV.700400.Sh_2211_tautaugamma.recon.AOD.e8338_s3681_r13167
mc20_13TeV.700400.Sh_2211_tautaugamma.recon.AOD.e8338_s3681_r13144
mc20_13TeV.700400.Sh_2211_tautaugamma.recon.AOD.e8338_s3681_r13145
mc20_13TeV.700401.Sh_2211_nunugamma.recon.AOD.e8338_s3681_r13167
mc20_13TeV.700401.Sh_2211_nunugamma.recon.AOD.e8338_s3681_r13144
mc20_13TeV.700401.Sh_2211_nunugamma.recon.AOD.e8338_s3681_r13145
mc20_13TeV.700402.Sh_2211_munugamma.recon.AOD.e8338_s3681_r13144
mc20_13TeV.700402.Sh_2211_munugamma.recon.AOD.e8338_s3681_r13145
mc20_13TeV.700402.Sh_2211_munugamma.recon.AOD.e8338_s3681_r13167
mc20_13TeV.700403.Sh_2211_enugamma.recon.AOD.e8338_s3681_r13167
mc20_13TeV.700403.Sh_2211_enugamma.recon.AOD.e8338_s3681_r13144
mc20_13TeV.700403.Sh_2211_enugamma.recon.AOD.e8338_s3681_r13145
mc20_13TeV.700404.Sh_2211_taunugamma.recon.AOD.e8338_s3681_r13167
mc20_13TeV.700404.Sh_2211_taunugamma.recon.AOD.e8338_s3681_r13144
mc20_13TeV.700404.Sh_2211_taunugamma.recon.AOD.e8338_s3681_r13145
mc20_13TeV.700442.Sh_2211_gamma2jets_pTy140_Min_N_TChannel.recon.AOD.e8357_s3681_r13167
mc20_13TeV.700442.Sh_2211_gamma2jets_pTy140_Min_N_TChannel.recon.AOD.e8357_s3681_r13144
mc20_13TeV.700442.Sh_2211_gamma2jets_pTy140_Min_N_TChannel.recon.AOD.e8357_s3681_r13145
mc20_13TeV.700442.Sh_2211_gamma2jets_pTy140_Min_N_TChannel.recon.AOD.e8357_s3681_r13167
mc20_13TeV.700467.Sh_2211_Zee_maxHTpTV2_m10_40_pT5_BFilter.recon.AOD.e8379_s3681_r13145
mc20_13TeV.700467.Sh_2211_Zee_maxHTpTV2_m10_40_pT5_BFilter.recon.AOD.e8379_s3681_r13144
mc20_13TeV.700467.Sh_2211_Zee_maxHTpTV2_m10_40_pT5_BFilter.recon.AOD.e8379_s3681_r13167
mc20_13TeV.700468.Sh_2211_Zee_maxHTpTV2_m10_40_pT5_CFilterBVeto.recon.AOD.e8379_s3681_r13145
mc20_13TeV.700468.Sh_2211_Zee_maxHTpTV2_m10_40_pT5_CFilterBVeto.recon.AOD.e8379_s3681_r13144
mc20_13TeV.700468.Sh_2211_Zee_maxHTpTV2_m10_40_pT5_CFilterBVeto.recon.AOD.e8379_s3681_r13167
mc20_13TeV.700469.Sh_2211_Zee_maxHTpTV2_m10_40_pT5_CVetoBVeto.recon.AOD.e8379_s3681_r13145
mc20_13TeV.700469.Sh_2211_Zee_maxHTpTV2_m10_40_pT5_CVetoBVeto.recon.AOD.e8379_s3681_r13144
mc20_13TeV.700469.Sh_2211_Zee_maxHTpTV2_m10_40_pT5_CVetoBVeto.recon.AOD.e8379_s3681_r13167
mc20_13TeV.700470.Sh_2211_Zmumu_maxHTpTV2_m10_40_pT5_BFilter.recon.AOD.e8379_s3681_r13144
mc20_13TeV.700470.Sh_2211_Zmumu_maxHTpTV2_m10_40_pT5_BFilter.recon.AOD.e8379_s3681_r13167
mc20_13TeV.700470.Sh_2211_Zmumu_maxHTpTV2_m10_40_pT5_BFilter.recon.AOD.e8379_s3681_r13145
mc20_13TeV.700471.Sh_2211_Zmumu_maxHTpTV2_m10_40_pT5_CFilterBVeto.recon.AOD.e8379_s3681_r13144
mc20_13TeV.700471.Sh_2211_Zmumu_maxHTpTV2_m10_40_pT5_CFilterBVeto.recon.AOD.e8379_s3681_r13167
mc20_13TeV.700471.Sh_2211_Zmumu_maxHTpTV2_m10_40_pT5_CFilterBVeto.recon.AOD.e8379_s3681_r13145
mc20_13TeV.700472.Sh_2211_Zmumu_maxHTpTV2_m10_40_pT5_CVetoBVeto.recon.AOD.e8379_s3681_r13144
mc20_13TeV.700472.Sh_2211_Zmumu_maxHTpTV2_m10_40_pT5_CVetoBVeto.recon.AOD.e8379_s3681_r13167
mc20_13TeV.700472.Sh_2211_Zmumu_maxHTpTV2_m10_40_pT5_CVetoBVeto.recon.AOD.e8379_s3681_r13145
mc20_13TeV.700488.Sh_2211_WlvWqq.recon.AOD.e8338_s3681_r13167
mc20_13TeV.700488.Sh_2211_WlvWqq.recon.AOD.e8338_s3681_r13144
mc20_13TeV.700488.Sh_2211_WlvWqq.recon.AOD.e8338_s3681_r13145
mc20_13TeV.700489.Sh_2211_WlvZqq.recon.AOD.e8338_s3681_r13145
mc20_13TeV.700489.Sh_2211_WlvZqq.recon.AOD.e8338_s3681_r13167
mc20_13TeV.700489.Sh_2211_WlvZqq.recon.AOD.e8338_s3681_r13144
mc20_13TeV.700490.Sh_2211_WlvZbb.recon.AOD.e8338_s3681_r13167
mc20_13TeV.700490.Sh_2211_WlvZbb.recon.AOD.e8338_s3681_r13145
mc20_13TeV.700490.Sh_2211_WlvZbb.recon.AOD.e8338_s3681_r13144
mc20_13TeV.700491.Sh_2211_WqqZvv.recon.AOD.e8338_s3681_r13144
mc20_13TeV.700491.Sh_2211_WqqZvv.recon.AOD.e8338_s3681_r13167
mc20_13TeV.700491.Sh_2211_WqqZvv.recon.AOD.e8338_s3681_r13145
mc20_13TeV.700492.Sh_2211_WqqZll.recon.AOD.e8338_s3681_r13167
mc20_13TeV.700492.Sh_2211_WqqZll.recon.AOD.e8338_s3681_r13144
mc20_13TeV.700492.Sh_2211_WqqZll.recon.AOD.e8338_s3681_r13145
mc20_13TeV.700493.Sh_2211_ZqqZll.recon.AOD.e8338_s3681_r13144
mc20_13TeV.700493.Sh_2211_ZqqZll.recon.AOD.e8338_s3681_r13167
mc20_13TeV.700493.Sh_2211_ZqqZll.recon.AOD.e8338_s3681_r13145
mc20_13TeV.700494.Sh_2211_ZbbZll.recon.AOD.e8338_s3681_r13144
mc20_13TeV.700494.Sh_2211_ZbbZll.recon.AOD.e8338_s3681_r13167
mc20_13TeV.700494.Sh_2211_ZbbZll.recon.AOD.e8338_s3681_r13145
mc20_13TeV.700495.Sh_2211_ZqqZvv.recon.AOD.e8338_s3681_r13167
mc20_13TeV.700495.Sh_2211_ZqqZvv.recon.AOD.e8338_s3681_r13145
mc20_13TeV.700495.Sh_2211_ZqqZvv.recon.AOD.e8338_s3681_r13144
mc20_13TeV.700496.Sh_2211_ZbbZvv.recon.AOD.e8338_s3681_r13144
mc20_13TeV.700496.Sh_2211_ZbbZvv.recon.AOD.e8338_s3681_r13145
mc20_13TeV.700496.Sh_2211_ZbbZvv.recon.AOD.e8338_s3681_r13167
mc20_13TeV.700507.Sh_2211_pTW140_Wqqgamma.recon.AOD.e8338_s3681_r13167
mc20_13TeV.700507.Sh_2211_pTW140_Wqqgamma.recon.AOD.e8338_s3681_r13144
mc20_13TeV.700507.Sh_2211_pTW140_Wqqgamma.recon.AOD.e8338_s3681_r13145
mc20_13TeV.700587.Sh_2212_lllljj.recon.AOD.e8433_s3681_r13167
mc20_13TeV.700587.Sh_2212_lllljj.recon.AOD.e8433_s3681_r13145
mc20_13TeV.700587.Sh_2212_lllljj.recon.AOD.e8433_s3681_r13144
mc20_13TeV.700588.Sh_2212_lllvjj.recon.AOD.e8433_s3681_r13167
mc20_13TeV.700588.Sh_2212_lllvjj.recon.AOD.e8433_s3681_r13145
mc20_13TeV.700588.Sh_2212_lllvjj.recon.AOD.e8433_s3681_r13144
mc20_13TeV.700589.Sh_2212_llvvjj_os.recon.AOD.e8433_s3681_r13167
mc20_13TeV.700589.Sh_2212_llvvjj_os.recon.AOD.e8433_s3681_r13145
mc20_13TeV.700589.Sh_2212_llvvjj_os.recon.AOD.e8433_s3681_r13144
mc20_13TeV.700590.Sh_2212_llvvjj_ss.recon.AOD.e8433_s3681_r13167
mc20_13TeV.700590.Sh_2212_llvvjj_ss.recon.AOD.e8433_s3681_r13145
mc20_13TeV.700590.Sh_2212_llvvjj_ss.recon.AOD.e8433_s3681_r13144
mc20_13TeV.700591.Sh_2212_lllljj_Int.recon.AOD.e8433_s3681_r13167
mc20_13TeV.700591.Sh_2212_lllljj_Int.recon.AOD.e8433_s3681_r13144
mc20_13TeV.700591.Sh_2212_lllljj_Int.recon.AOD.e8433_s3681_r13145
mc20_13TeV.700592.Sh_2212_lllvjj_Int.recon.AOD.e8433_s3681_r13167
mc20_13TeV.700592.Sh_2212_lllvjj_Int.recon.AOD.e8433_s3681_r13144
mc20_13TeV.700592.Sh_2212_lllvjj_Int.recon.AOD.e8433_s3681_r13145
mc20_13TeV.700593.Sh_2212_llvvjj_os_Int.recon.AOD.e8433_s3681_r13167
mc20_13TeV.700593.Sh_2212_llvvjj_os_Int.recon.AOD.e8433_s3681_r13144
mc20_13TeV.700593.Sh_2212_llvvjj_os_Int.recon.AOD.e8433_s3681_r13145
mc20_13TeV.700594.Sh_2212_llvvjj_ss_Int.recon.AOD.e8433_s3681_r13167
mc20_13TeV.700594.Sh_2212_llvvjj_ss_Int.recon.AOD.e8433_s3681_r13144
mc20_13TeV.700594.Sh_2212_llvvjj_ss_Int.recon.AOD.e8433_s3681_r13145
mc20_13TeV.700600.Sh_2212_llll.recon.AOD.e8433_s3681_r13167
mc20_13TeV.700600.Sh_2212_llll.recon.AOD.e8433_s3681_r13145
mc20_13TeV.700600.Sh_2212_llll.recon.AOD.e8433_s3681_r13144
mc20_13TeV.700601.Sh_2212_lllv.recon.AOD.e8433_s3681_r13167
mc20_13TeV.700601.Sh_2212_lllv.recon.AOD.e8433_s3681_r13145
mc20_13TeV.700601.Sh_2212_lllv.recon.AOD.e8433_s3681_r13144
mc20_13TeV.700602.Sh_2212_llvv_os.recon.AOD.e8433_s3681_r13167
mc20_13TeV.700602.Sh_2212_llvv_os.recon.AOD.e8433_s3681_r13144
mc20_13TeV.700602.Sh_2212_llvv_os.recon.AOD.e8433_s3681_r13145
mc20_13TeV.700603.Sh_2212_llvv_ss.recon.AOD.e8433_s3681_r13167
mc20_13TeV.700603.Sh_2212_llvv_ss.recon.AOD.e8433_s3681_r13144
mc20_13TeV.700603.Sh_2212_llvv_ss.recon.AOD.e8433_s3681_r13145
mc20_13TeV.700604.Sh_2212_lvvv.recon.AOD.e8433_s3681_r13167
mc20_13TeV.700604.Sh_2212_lvvv.recon.AOD.e8433_s3681_r13144
mc20_13TeV.700604.Sh_2212_lvvv.recon.AOD.e8433_s3681_r13145
mc20_13TeV.700605.Sh_2212_vvvv.recon.AOD.e8433_s3681_r13167
mc20_13TeV.700605.Sh_2212_vvvv.recon.AOD.e8433_s3681_r13144
mc20_13TeV.700605.Sh_2212_vvvv.recon.AOD.e8433_s3681_r13145
mc20_13TeV.700659.Sh_2212_ttbar_AllHadronic_maxHTavrgTopPT.recon.AOD.e8461_s3681_r13167
mc20_13TeV.700659.Sh_2212_ttbar_AllHadronic_maxHTavrgTopPT.recon.AOD.e8461_s3681_r13144
mc20_13TeV.700659.Sh_2212_ttbar_AllHadronic_maxHTavrgTopPT.recon.AOD.e8461_s3681_r13145
mc20_13TeV.700660.Sh_2212_ttbar_dilepton_maxHTavrgTopPT.recon.AOD.e8461_s3681_r13167
mc20_13TeV.700660.Sh_2212_ttbar_dilepton_maxHTavrgTopPT.recon.AOD.e8461_s3681_r13144
mc20_13TeV.700660.Sh_2212_ttbar_dilepton_maxHTavrgTopPT.recon.AOD.e8461_s3681_r13145
mc20_13TeV.700661.Sh_2212_ttbar_SingleLeptonM_maxHTavrgTopPT.recon.AOD.e8461_s3681_r13167
mc20_13TeV.700661.Sh_2212_ttbar_SingleLeptonM_maxHTavrgTopPT.recon.AOD.e8461_s3681_r13144
mc20_13TeV.700661.Sh_2212_ttbar_SingleLeptonM_maxHTavrgTopPT.recon.AOD.e8461_s3681_r13145
mc20_13TeV.700662.Sh_2212_ttbar_SingleLeptonP_maxHTavrgTopPT.recon.AOD.e8461_s3681_r13167
mc20_13TeV.700662.Sh_2212_ttbar_SingleLeptonP_maxHTavrgTopPT.recon.AOD.e8461_s3681_r13144
mc20_13TeV.700662.Sh_2212_ttbar_SingleLeptonP_maxHTavrgTopPT.recon.AOD.e8461_s3681_r13145
mc20_13TeV.700709.Sh_2212_lvgammajj.recon.AOD.e8433_s3681_r13167
mc20_13TeV.700709.Sh_2212_lvgammajj.recon.AOD.e8433_s3681_r13144
mc20_13TeV.700709.Sh_2212_lvgammajj.recon.AOD.e8433_s3681_r13145
mc20_13TeV.700710.Sh_2212_llgammajj.recon.AOD.e8433_s3681_r13167
mc20_13TeV.700710.Sh_2212_llgammajj.recon.AOD.e8433_s3681_r13144
mc20_13TeV.700710.Sh_2212_llgammajj.recon.AOD.e8433_s3681_r13145
mc20_13TeV.700770.Sh_2214_eegamma.recon.AOD.e8547_s3797_r13144
mc20_13TeV.700770.Sh_2214_eegamma.recon.AOD.e8547_s3797_r13167
mc20_13TeV.700770.Sh_2214_eegamma.recon.AOD.e8547_s3797_r13145
mc20_13TeV.700771.Sh_2214_mumugamma.recon.AOD.e8547_s3797_r13144
mc20_13TeV.700771.Sh_2214_mumugamma.recon.AOD.e8547_s3797_r13167
mc20_13TeV.700771.Sh_2214_mumugamma.recon.AOD.e8547_s3797_r13145
mc20_13TeV.700772.Sh_2214_tautaugamma.recon.AOD.e8547_s3797_r13144
mc20_13TeV.700772.Sh_2214_tautaugamma.recon.AOD.e8547_s3797_r13167
mc20_13TeV.700772.Sh_2214_tautaugamma.recon.AOD.e8547_s3797_r13145
mc20_13TeV.700773.Sh_2214_enugamma.recon.AOD.e8547_s3797_r13144
mc20_13TeV.700773.Sh_2214_enugamma.recon.AOD.e8547_s3797_r13167
mc20_13TeV.700773.Sh_2214_enugamma.recon.AOD.e8547_s3797_r13145
mc20_13TeV.700774.Sh_2214_munugamma.recon.AOD.e8547_s3797_r13167
mc20_13TeV.700774.Sh_2214_munugamma.recon.AOD.e8547_s3797_r13144
mc20_13TeV.700774.Sh_2214_munugamma.recon.AOD.e8547_s3797_r13145
mc20_13TeV.700775.Sh_2214_taunugamma.recon.AOD.e8547_s3797_r13167
mc20_13TeV.700775.Sh_2214_taunugamma.recon.AOD.e8547_s3797_r13144
mc20_13TeV.700775.Sh_2214_taunugamma.recon.AOD.e8547_s3797_r13145
mc20_13TeV.700776.Sh_2214_nunugamma.recon.AOD.e8547_s3797_r13144
mc20_13TeV.700776.Sh_2214_nunugamma.recon.AOD.e8547_s3797_r13145
mc20_13TeV.700776.Sh_2214_nunugamma.recon.AOD.e8547_s3797_r13167
mc20_13TeV.700792.Sh_2214_Ztautau_maxHTpTV2_BFilter.recon.AOD.e8527_s3681_r13144
mc20_13TeV.700792.Sh_2214_Ztautau_maxHTpTV2_BFilter.recon.AOD.e8527_s3681_r13145
mc20_13TeV.700792.Sh_2214_Ztautau_maxHTpTV2_BFilter.recon.AOD.e8527_s3681_r13167
mc20_13TeV.700793.Sh_2214_Ztautau_maxHTpTV2_CFilterBVeto.recon.AOD.e8527_s3681_r13144
mc20_13TeV.700793.Sh_2214_Ztautau_maxHTpTV2_CFilterBVeto.recon.AOD.e8527_s3681_r13145
mc20_13TeV.700793.Sh_2214_Ztautau_maxHTpTV2_CFilterBVeto.recon.AOD.e8527_s3681_r13167
mc20_13TeV.700794.Sh_2214_Ztautau_maxHTpTV2_CVetoBVeto.recon.AOD.e8527_s3681_r13144
mc20_13TeV.700794.Sh_2214_Ztautau_maxHTpTV2_CVetoBVeto.recon.AOD.e8527_s3681_r13145
mc20_13TeV.700794.Sh_2214_Ztautau_maxHTpTV2_CVetoBVeto.recon.AOD.e8527_s3681_r13167
mc20_13TeV.700843.Sh_2214_Wqq_ptW_200_ECMS.recon.AOD.e8536_s3681_r13144
mc20_13TeV.700843.Sh_2214_Wqq_ptW_200_ECMS.recon.AOD.e8536_s3681_r13145
mc20_13TeV.700843.Sh_2214_Wqq_ptW_200_ECMS.recon.AOD.e8536_s3681_r13167
mc20_13TeV.700849.Sh_2214_Zqq_ptZ_200_ECMS.recon.AOD.e8536_s3681_r13167
mc20_13TeV.700849.Sh_2214_Zqq_ptZ_200_ECMS.recon.AOD.e8536_s3681_r13144
mc20_13TeV.700849.Sh_2214_Zqq_ptZ_200_ECMS.recon.AOD.e8536_s3681_r13145
mc20_13TeV.700855.Sh_2214_Zbb_ptZ_200_ECMS.recon.AOD.e8536_s3681_r13167
mc20_13TeV.700855.Sh_2214_Zbb_ptZ_200_ECMS.recon.AOD.e8536_s3681_r13144
mc20_13TeV.700855.Sh_2214_Zbb_ptZ_200_ECMS.recon.AOD.e8536_s3681_r13145
mc20_13TeV.700870.Sh_2214_enugammagamma.recon.AOD.e8536_s3681_r13144
mc20_13TeV.700870.Sh_2214_enugammagamma.recon.AOD.e8536_s3681_r13145
mc20_13TeV.700870.Sh_2214_enugammagamma.recon.AOD.e8536_s3681_r13167
mc20_13TeV.700871.Sh_2214_munugammagamma.recon.AOD.e8536_s3681_r13144
mc20_13TeV.700871.Sh_2214_munugammagamma.recon.AOD.e8536_s3681_r13145
mc20_13TeV.700871.Sh_2214_munugammagamma.recon.AOD.e8536_s3681_r13167
mc20_13TeV.700872.Sh_2214_taunugammagamma.recon.AOD.e8536_s3681_r13144
mc20_13TeV.700872.Sh_2214_taunugammagamma.recon.AOD.e8536_s3681_r13145
mc20_13TeV.700872.Sh_2214_taunugammagamma.recon.AOD.e8536_s3681_r13167
mc20_13TeV.700873.Sh_2214_eegammagamma.recon.AOD.e8536_s3681_r13144
mc20_13TeV.700873.Sh_2214_eegammagamma.recon.AOD.e8536_s3681_r13145
mc20_13TeV.700873.Sh_2214_eegammagamma.recon.AOD.e8536_s3681_r13167
mc20_13TeV.700874.Sh_2214_mumugammagamma.recon.AOD.e8536_s3681_r13144
mc20_13TeV.700874.Sh_2214_mumugammagamma.recon.AOD.e8536_s3681_r13145
mc20_13TeV.700874.Sh_2214_mumugammagamma.recon.AOD.e8536_s3681_r13167
mc20_13TeV.700875.Sh_2214_tautaugammagamma.recon.AOD.e8536_s3681_r13144
mc20_13TeV.700875.Sh_2214_tautaugammagamma.recon.AOD.e8536_s3681_r13145
mc20_13TeV.700875.Sh_2214_tautaugammagamma.recon.AOD.e8536_s3681_r13167
mc20_13TeV.700876.Sh_2214_nunugammagamma.recon.AOD.e8536_s3681_r13144
mc20_13TeV.700876.Sh_2214_nunugammagamma.recon.AOD.e8536_s3681_r13145
mc20_13TeV.700876.Sh_2214_nunugammagamma.recon.AOD.e8536_s3681_r13167
mc20_13TeV.700901.Sh_2214_Ztt_maxHTpTV2_Mll10_40_BFilter.recon.AOD.e8536_s3681_r13144
mc20_13TeV.700901.Sh_2214_Ztt_maxHTpTV2_Mll10_40_BFilter.recon.AOD.e8536_s3681_r13145
mc20_13TeV.700901.Sh_2214_Ztt_maxHTpTV2_Mll10_40_BFilter.recon.AOD.e8536_s3681_r13167
mc20_13TeV.700902.Sh_2214_Ztt_maxHTpTV2_Mll10_40_CFilterBVeto.recon.AOD.e8536_s3681_r13145
mc20_13TeV.700902.Sh_2214_Ztt_maxHTpTV2_Mll10_40_CFilterBVeto.recon.AOD.e8536_s3681_r13167
mc20_13TeV.700902.Sh_2214_Ztt_maxHTpTV2_Mll10_40_CFilterBVeto.recon.AOD.e8536_s3681_r13144
mc20_13TeV.700903.Sh_2214_Ztt_maxHTpTV2_Mll10_40_CVetoBVeto.recon.AOD.e8536_s3681_r13144
mc20_13TeV.700903.Sh_2214_Ztt_maxHTpTV2_Mll10_40_CVetoBVeto.recon.AOD.e8536_s3681_r13145
mc20_13TeV.700903.Sh_2214_Ztt_maxHTpTV2_Mll10_40_CVetoBVeto.recon.AOD.e8536_s3681_r13167
mc20_13TeV.701000.Sh_2214_lllljj.recon.AOD.e8547_s3797_r13167
mc20_13TeV.701000.Sh_2214_lllljj.recon.AOD.e8547_s3797_r13144
mc20_13TeV.701000.Sh_2214_lllljj.recon.AOD.e8547_s3797_r13145
mc20_13TeV.701005.Sh_2214_lllvjj.recon.AOD.e8547_s3797_r13167
mc20_13TeV.701005.Sh_2214_lllvjj.recon.AOD.e8547_s3797_r13144
mc20_13TeV.701005.Sh_2214_lllvjj.recon.AOD.e8547_s3797_r13145
mc20_13TeV.701010.Sh_2214_llvvjj_os.recon.AOD.e8547_s3797_r13167
mc20_13TeV.701010.Sh_2214_llvvjj_os.recon.AOD.e8547_s3797_r13144
mc20_13TeV.701010.Sh_2214_llvvjj_os.recon.AOD.e8547_s3797_r13145
mc20_13TeV.701015.Sh_2214_llvvjj_ss.recon.AOD.e8547_s3797_r13167
mc20_13TeV.701015.Sh_2214_llvvjj_ss.recon.AOD.e8547_s3797_r13144
mc20_13TeV.701015.Sh_2214_llvvjj_ss.recon.AOD.e8547_s3797_r13145
mc20_13TeV.701020.Sh_2214_lllljj_Int.recon.AOD.e8547_s3797_r13167
mc20_13TeV.701020.Sh_2214_lllljj_Int.recon.AOD.e8547_s3797_r13144
mc20_13TeV.701020.Sh_2214_lllljj_Int.recon.AOD.e8547_s3797_r13145
mc20_13TeV.701025.Sh_2214_lllvjj_Int.recon.AOD.e8547_s3797_r13167
mc20_13TeV.701025.Sh_2214_lllvjj_Int.recon.AOD.e8547_s3797_r13144
mc20_13TeV.701025.Sh_2214_lllvjj_Int.recon.AOD.e8547_s3797_r13145
mc20_13TeV.701030.Sh_2214_llvvjj_os_Int.recon.AOD.e8547_s3797_r13167
mc20_13TeV.701030.Sh_2214_llvvjj_os_Int.recon.AOD.e8547_s3797_r13144
mc20_13TeV.701030.Sh_2214_llvvjj_os_Int.recon.AOD.e8547_s3797_r13145
mc20_13TeV.701035.Sh_2214_llvvjj_ss_Int.recon.AOD.e8547_s3797_r13167
mc20_13TeV.701035.Sh_2214_llvvjj_ss_Int.recon.AOD.e8547_s3797_r13144
mc20_13TeV.701035.Sh_2214_llvvjj_ss_Int.recon.AOD.e8547_s3797_r13145
mc20_13TeV.701040.Sh_2214_llll.recon.AOD.e8547_s3797_r13167
mc20_13TeV.701040.Sh_2214_llll.recon.AOD.e8547_s3797_r13145
mc20_13TeV.701040.Sh_2214_llll.recon.AOD.e8547_s3797_r13144
mc20_13TeV.701045.Sh_2214_lllv.recon.AOD.e8547_s3797_r13145
mc20_13TeV.701045.Sh_2214_lllv.recon.AOD.e8547_s3797_r13167
mc20_13TeV.701045.Sh_2214_lllv.recon.AOD.e8547_s3797_r13144
mc20_13TeV.701050.Sh_2214_llvv_os.recon.AOD.e8547_s3797_r13145
mc20_13TeV.701050.Sh_2214_llvv_os.recon.AOD.e8547_s3797_r13167
mc20_13TeV.701050.Sh_2214_llvv_os.recon.AOD.e8547_s3797_r13144
mc20_13TeV.701055.Sh_2214_llvv_ss.recon.AOD.e8547_s3797_r13145
mc20_13TeV.701055.Sh_2214_llvv_ss.recon.AOD.e8547_s3797_r13167
mc20_13TeV.701055.Sh_2214_llvv_ss.recon.AOD.e8547_s3797_r13144
mc20_13TeV.701060.Sh_2214_lvvv.recon.AOD.e8547_s3797_r13145
mc20_13TeV.701060.Sh_2214_lvvv.recon.AOD.e8547_s3797_r13167
mc20_13TeV.701060.Sh_2214_lvvv.recon.AOD.e8547_s3797_r13144
mc20_13TeV.701065.Sh_2214_vvvv.recon.AOD.e8547_s3797_r13167
mc20_13TeV.701065.Sh_2214_vvvv.recon.AOD.e8547_s3797_r13145
mc20_13TeV.701065.Sh_2214_vvvv.recon.AOD.e8547_s3797_r13144
mc20_13TeV.701085.Sh_2214_ZqqZll.recon.AOD.e8547_s3797_r13145
mc20_13TeV.701085.Sh_2214_ZqqZll.recon.AOD.e8547_s3797_r13167
mc20_13TeV.701085.Sh_2214_ZqqZll.recon.AOD.e8547_s3797_r13144
mc20_13TeV.701090.Sh_2214_ZbbZll.recon.AOD.e8547_s3797_r13145
mc20_13TeV.701090.Sh_2214_ZbbZll.recon.AOD.e8547_s3797_r13167
mc20_13TeV.701090.Sh_2214_ZbbZll.recon.AOD.e8547_s3797_r13144
mc20_13TeV.701095.Sh_2214_ZqqZvv.recon.AOD.e8547_s3797_r13145
mc20_13TeV.701095.Sh_2214_ZqqZvv.recon.AOD.e8547_s3797_r13167
mc20_13TeV.701095.Sh_2214_ZqqZvv.recon.AOD.e8547_s3797_r13144
mc20_13TeV.701100.Sh_2214_ZbbZvv.recon.AOD.e8547_s3797_r13145
mc20_13TeV.701100.Sh_2214_ZbbZvv.recon.AOD.e8547_s3797_r13167
mc20_13TeV.701100.Sh_2214_ZbbZvv.recon.AOD.e8547_s3797_r13144
mc20_13TeV.701105.Sh_2214_WqqZll.recon.AOD.e8547_s3797_r13145
mc20_13TeV.701105.Sh_2214_WqqZll.recon.AOD.e8547_s3797_r13167
mc20_13TeV.701105.Sh_2214_WqqZll.recon.AOD.e8547_s3797_r13144
mc20_13TeV.701110.Sh_2214_WqqZvv.recon.AOD.e8547_s3797_r13145
mc20_13TeV.701110.Sh_2214_WqqZvv.recon.AOD.e8547_s3797_r13167
mc20_13TeV.701110.Sh_2214_WqqZvv.recon.AOD.e8547_s3797_r13144
mc20_13TeV.701115.Sh_2214_WlvZqq.recon.AOD.e8547_s3797_r13145
mc20_13TeV.701115.Sh_2214_WlvZqq.recon.AOD.e8547_s3797_r13167
mc20_13TeV.701115.Sh_2214_WlvZqq.recon.AOD.e8547_s3797_r13144
mc20_13TeV.701120.Sh_2214_WlvZbb.recon.AOD.e8547_s3797_r13145
mc20_13TeV.701120.Sh_2214_WlvZbb.recon.AOD.e8547_s3797_r13167
mc20_13TeV.701120.Sh_2214_WlvZbb.recon.AOD.e8547_s3797_r13144
mc20_13TeV.701125.Sh_2214_WlvWqq.recon.AOD.e8547_s3797_r13145
mc20_13TeV.701125.Sh_2214_WlvWqq.recon.AOD.e8547_s3797_r13167
mc20_13TeV.701125.Sh_2214_WlvWqq.recon.AOD.e8547_s3797_r13144
mc20_13TeV.701165.Sh_2214_llgammajj.recon.AOD.e8547_s3797_r13144
mc20_13TeV.701165.Sh_2214_llgammajj.recon.AOD.e8547_s3797_r13167
mc20_13TeV.701170.Sh_2214_lvgammajj.recon.AOD.e8547_s3797_r13144
mc20_13TeV.701170.Sh_2214_lvgammajj.recon.AOD.e8547_s3797_r13167
mc20_13TeV.800658.Py8_gammajet_direct_DP8_17_ordered.recon.AOD.e8279_s3681_r13144
mc20_13TeV.800658.Py8_gammajet_direct_DP8_17_ordered.recon.AOD.e8279_s3681_r13167
mc20_13TeV.800658.Py8_gammajet_direct_DP8_17_ordered.recon.AOD.e8279_s3681_r13145
mc20_13TeV.800659.Py8_gammajet_direct_DP17_35_ordered.recon.AOD.e8279_s3681_r13144
mc20_13TeV.800659.Py8_gammajet_direct_DP17_35_ordered.recon.AOD.e8279_s3681_r13167
mc20_13TeV.800659.Py8_gammajet_direct_DP17_35_ordered.recon.AOD.e8279_s3681_r13145
mc20_13TeV.800660.Py8_gammajet_direct_DP35_50_ordered.recon.AOD.e8279_s3681_r13144
mc20_13TeV.800660.Py8_gammajet_direct_DP35_50_ordered.recon.AOD.e8279_s3681_r13167
mc20_13TeV.800660.Py8_gammajet_direct_DP35_50_ordered.recon.AOD.e8279_s3681_r13145
mc20_13TeV.800661.Py8_gammajet_direct_DP50_70_ordered.recon.AOD.e8279_s3681_r13144
mc20_13TeV.800661.Py8_gammajet_direct_DP50_70_ordered.recon.AOD.e8279_s3681_r13167
mc20_13TeV.800661.Py8_gammajet_direct_DP50_70_ordered.recon.AOD.e8279_s3681_r13145
mc20_13TeV.800662.Py8_gammajet_direct_DP70_140_ordered.recon.AOD.e8279_s3681_r13144
mc20_13TeV.800662.Py8_gammajet_direct_DP70_140_ordered.recon.AOD.e8279_s3681_r13167
mc20_13TeV.800662.Py8_gammajet_direct_DP70_140_ordered.recon.AOD.e8279_s3681_r13145
mc20_13TeV.800663.Py8_gammajet_direct_DP140_280_ordered.recon.AOD.e8279_s3681_r13144
mc20_13TeV.800663.Py8_gammajet_direct_DP140_280_ordered.recon.AOD.e8279_s3681_r13167
mc20_13TeV.800663.Py8_gammajet_direct_DP140_280_ordered.recon.AOD.e8279_s3681_r13145
mc20_13TeV.800664.Py8_gammajet_direct_DP280_500_ordered.recon.AOD.e8279_s3681_r13144
mc20_13TeV.800664.Py8_gammajet_direct_DP280_500_ordered.recon.AOD.e8279_s3681_r13167
mc20_13TeV.800664.Py8_gammajet_direct_DP280_500_ordered.recon.AOD.e8279_s3681_r13145
mc20_13TeV.800665.Py8_gammajet_direct_DP500_800_ordered.recon.AOD.e8279_s3681_r13144
mc20_13TeV.800665.Py8_gammajet_direct_DP500_800_ordered.recon.AOD.e8279_s3681_r13167
mc20_13TeV.800665.Py8_gammajet_direct_DP500_800_ordered.recon.AOD.e8279_s3681_r13145
mc20_13TeV.800666.Py8_gammajet_direct_DP800_1000_ordered.recon.AOD.e8279_s3681_r13144
mc20_13TeV.800666.Py8_gammajet_direct_DP800_1000_ordered.recon.AOD.e8279_s3681_r13167
mc20_13TeV.800666.Py8_gammajet_direct_DP800_1000_ordered.recon.AOD.e8279_s3681_r13145
mc20_13TeV.800667.Py8_gammajet_direct_DP1000_1500_ordered.recon.AOD.e8279_s3681_r13144
mc20_13TeV.800667.Py8_gammajet_direct_DP1000_1500_ordered.recon.AOD.e8279_s3681_r13167
mc20_13TeV.800667.Py8_gammajet_direct_DP1000_1500_ordered.recon.AOD.e8279_s3681_r13145
mc20_13TeV.800668.Py8_gammajet_direct_DP1500_2000_ordered.recon.AOD.e8279_s3681_r13144
mc20_13TeV.800668.Py8_gammajet_direct_DP1500_2000_ordered.recon.AOD.e8279_s3681_r13167
mc20_13TeV.800668.Py8_gammajet_direct_DP1500_2000_ordered.recon.AOD.e8279_s3681_r13145
mc20_13TeV.800669.Py8_gammajet_direct_DP2000_2500_ordered.recon.AOD.e8279_s3681_r13144
mc20_13TeV.800669.Py8_gammajet_direct_DP2000_2500_ordered.recon.AOD.e8279_s3681_r13145
mc20_13TeV.800669.Py8_gammajet_direct_DP2000_2500_ordered.recon.AOD.e8279_s3681_r13167
mc20_13TeV.800670.Py8_gammajet_direct_DP2500_3000_ordered.recon.AOD.e8279_s3681_r13144
mc20_13TeV.800670.Py8_gammajet_direct_DP2500_3000_ordered.recon.AOD.e8279_s3681_r13145
mc20_13TeV.800670.Py8_gammajet_direct_DP2500_3000_ordered.recon.AOD.e8279_s3681_r13167
mc20_13TeV.800671.Py8_gammajet_direct_DP3000_inf_ordered.recon.AOD.e8279_s3681_r13144
mc20_13TeV.800671.Py8_gammajet_direct_DP3000_inf_ordered.recon.AOD.e8279_s3681_r13145
mc20_13TeV.800671.Py8_gammajet_direct_DP3000_inf_ordered.recon.AOD.e8279_s3681_r13167
mc20_13TeV.800672.Py8_gammajet_frag_DP8_17_ordered.recon.AOD.e8279_s3681_r13144
mc20_13TeV.800672.Py8_gammajet_frag_DP8_17_ordered.recon.AOD.e8279_s3681_r13145
mc20_13TeV.800672.Py8_gammajet_frag_DP8_17_ordered.recon.AOD.e8279_s3681_r13167
mc20_13TeV.800673.Py8_gammajet_frag_DP17_35_ordered.recon.AOD.e8279_s3681_r13144
mc20_13TeV.800673.Py8_gammajet_frag_DP17_35_ordered.recon.AOD.e8279_s3681_r13145
mc20_13TeV.800673.Py8_gammajet_frag_DP17_35_ordered.recon.AOD.e8279_s3681_r13167
mc20_13TeV.800674.Py8_gammajet_frag_DP35_50_ordered.recon.AOD.e8279_s3681_r13144
mc20_13TeV.800674.Py8_gammajet_frag_DP35_50_ordered.recon.AOD.e8279_s3681_r13145
mc20_13TeV.800674.Py8_gammajet_frag_DP35_50_ordered.recon.AOD.e8279_s3681_r13167
mc20_13TeV.800675.Py8_gammajet_frag_DP50_70_ordered.recon.AOD.e8279_s3681_r13144
mc20_13TeV.800675.Py8_gammajet_frag_DP50_70_ordered.recon.AOD.e8279_s3681_r13145
mc20_13TeV.800675.Py8_gammajet_frag_DP50_70_ordered.recon.AOD.e8279_s3681_r13167
mc20_13TeV.800676.Py8_gammajet_frag_DP70_140_ordered.recon.AOD.e8279_s3681_r13144
mc20_13TeV.800676.Py8_gammajet_frag_DP70_140_ordered.recon.AOD.e8279_s3681_r13145
mc20_13TeV.800676.Py8_gammajet_frag_DP70_140_ordered.recon.AOD.e8279_s3681_r13167
mc20_13TeV.800677.Py8_gammajet_frag_DP140_280_ordered.recon.AOD.e8279_s3681_r13144
mc20_13TeV.800677.Py8_gammajet_frag_DP140_280_ordered.recon.AOD.e8279_s3681_r13145
mc20_13TeV.800677.Py8_gammajet_frag_DP140_280_ordered.recon.AOD.e8279_s3681_r13167
mc20_13TeV.800678.Py8_gammajet_frag_DP280_500_ordered.recon.AOD.e8279_s3681_r13144
mc20_13TeV.800678.Py8_gammajet_frag_DP280_500_ordered.recon.AOD.e8279_s3681_r13145
mc20_13TeV.800678.Py8_gammajet_frag_DP280_500_ordered.recon.AOD.e8279_s3681_r13167
mc20_13TeV.800679.Py8_gammajet_frag_DP500_800_ordered.recon.AOD.e8279_s3681_r13144
mc20_13TeV.800679.Py8_gammajet_frag_DP500_800_ordered.recon.AOD.e8279_s3681_r13145
mc20_13TeV.800679.Py8_gammajet_frag_DP500_800_ordered.recon.AOD.e8279_s3681_r13167
mc20_13TeV.800680.Py8_gammajet_frag_DP800_1000_ordered.recon.AOD.e8279_s3681_r13144
mc20_13TeV.800680.Py8_gammajet_frag_DP800_1000_ordered.recon.AOD.e8279_s3681_r13167
mc20_13TeV.800680.Py8_gammajet_frag_DP800_1000_ordered.recon.AOD.e8279_s3681_r13145
mc20_13TeV.800681.Py8_gammajet_frag_DP1000_1500_ordered.recon.AOD.e8279_s3681_r13144
mc20_13TeV.800681.Py8_gammajet_frag_DP1000_1500_ordered.recon.AOD.e8279_s3681_r13167
mc20_13TeV.800681.Py8_gammajet_frag_DP1000_1500_ordered.recon.AOD.e8279_s3681_r13145
mc20_13TeV.800682.Py8_gammajet_frag_DP1500_2000_ordered.recon.AOD.e8279_s3681_r13144
mc20_13TeV.800682.Py8_gammajet_frag_DP1500_2000_ordered.recon.AOD.e8279_s3681_r13167
mc20_13TeV.800682.Py8_gammajet_frag_DP1500_2000_ordered.recon.AOD.e8279_s3681_r13145
mc20_13TeV.800683.Py8_gammajet_frag_DP2000_inf_ordered.recon.AOD.e8279_s3681_r13144
mc20_13TeV.800683.Py8_gammajet_frag_DP2000_inf_ordered.recon.AOD.e8279_s3681_r13167
mc20_13TeV.800683.Py8_gammajet_frag_DP2000_inf_ordered.recon.AOD.e8279_s3681_r13145
